\relax 
\newlabel{resolvent+spectrum}{{1}{3}}
\newlabel{inverse}{{4}{3}}
\newlabel{subleading}{{5}{4}}
\@writefile{lof}{\contentsline {figure}{\numberline {1}{\ignorespaces The eigenvalue distributions for $\boldsymbol  {M} $ and $ \boldsymbol  {J} $ of size $ S = 250 $ with $\boldsymbol  {D} $ and $\boldsymbol  {X}$ following different distributions. In each case, $\boldsymbol  {A} $ is a bivariate normal distribution with identical marginals $ \mu = 2 / S$, $\sigma = 0.5$ and $ \rho = 0$. Uniform D has $\boldsymbol  {D} $ following a uniform distribution on $(-1.5, -0.5)$. LogNormal X has $\boldsymbol  {X}$ following a log-normal distribution with log-mean $0$ and log-standard deviation $0.35$. HalfNormal X has $ \boldsymbol  {X} $ following a half-normal distribution with support $(1, \infty )$ with parameter $\theta = 1$.}}{5}}
\newlabel{fig:M+J}{{1}{5}}
\newlabel{resolventQ}{{6}{6}}
\newlabel{spectrumQ}{{}{6}}
\newlabel{predictedQ}{{7}{6}}
\@writefile{lof}{\contentsline {figure}{\numberline {2}{\ignorespaces Histograms of the eigenvalue distribution for two matrices $\boldsymbol  {Q}$ of size $ S = 1500$. In each matrix, $\sigma _d = 0$, $\mu _d = -1$ and $ \mu = 5 / S$. The Uniform plot has $\boldsymbol  {X}$ following a uniform distribution on $(0,1)$ and the LogNormal plot has $\boldsymbol  {X}$ following a log-normal distribution with log-mean and log-standard deviation both $0.5$.}}{7}}
\newlabel{fig:observation}{{2}{7}}
\newlabel{support:2}{{10}{8}}
\@writefile{lof}{\contentsline {figure}{\numberline {3}{\ignorespaces The conditional probability of a matrix $\boldsymbol  {M}$ becoming \emph  {stable} given an \emph  {unstable} interaction matrix $\boldsymbol  {A}$ with leading eigenvalue $-d$. The off-diagonal elements of $\boldsymbol  {A}$ follow a bivariate normal distribution and, for each $S$, $\mu $ =0, $\sigma = 1 / \sqrt  {S}$ and $\rho = -0.5$, $0$ or $0.5$. The elements of $\boldsymbol  {X}$ are drawn from a uniform distribution on $(0,1)$, so that $\mu _X = 0.5$ and $\sigma _X^2 = \frac  {1}{12}$. The diagonal elements of $\boldsymbol  {A}$ are fixed at $-1$ since $\sigma _d^2 = 0$ and $\mu _D = -1$. Each probability is calculated from $1000$ trials from $1000$ simulated matrices $\boldsymbol  {M} = \boldsymbol  {XA}$.}}{11}}
\newlabel{fig:destabilized1}{{3}{11}}
\@writefile{lof}{\contentsline {figure}{\numberline {4}{\ignorespaces As in Figure 3\hbox {}, except now the conditional probability is weighted by feasibility.}}{11}}
\newlabel{fig:destabilized2}{{4}{11}}
\@writefile{lof}{\contentsline {figure}{\numberline {5}{\ignorespaces The conditional probability of a matrix $\boldsymbol  {M}$ becoming unstable given an stable interaction matrix $\boldsymbol  {A}$ with leading eigenvalue $-d$. The off-diagonal elements of $\boldsymbol  {A}$ follow a bivariate normal distribution and, for each $S$, $\mu $ =0, $\sigma = 1 / \sqrt  {S}$ and $\rho = -0.5$, $0$ or $0.5$. The elements of $\boldsymbol  {X}$ are drawn from a uniform distribution on $(0,1)$, so that $\mu _X = 0.5$ and $\sigma _X^2 = \frac  {1}{12}$. The diagonal elements of $\boldsymbol  {A}$ follow a uniform distribution on $(-0.75, -1.25)$ so that $\sigma _d^2 = \frac  {1}{48}$ and $\mu _D = -1$. Each probability is calculated from $1000$ trials from $1000$ simulated matrices $\boldsymbol  {M} = \boldsymbol  {XA}$.}}{12}}
\newlabel{fig:Dvarying1}{{5}{12}}
\@writefile{lof}{\contentsline {figure}{\numberline {6}{\ignorespaces As in Figure 5\hbox {}, except now the conditional probability is weighted by feasibility.}}{12}}
\newlabel{fig:Dvarying2}{{6}{12}}
\@writefile{lof}{\contentsline {figure}{\numberline {7}{\ignorespaces The conditional probability of a matrix $\boldsymbol  {M}$ becoming unstable given an stable interaction matrix $\boldsymbol  {A}$ with leading eigenvalue $-d$. The off-diagonal elements of $\boldsymbol  {A}$ follow a bivariate normal distribution and, for each $S$, $\mu $ =0, $\sigma = 1 / \sqrt  {S}$ and $\rho = -0.5$, $0$ or $0.5$. The elements of $\boldsymbol  {X}$ are drawn from a log-normal distribution with log-mean and log-standard deviation both $0.5$ so that $\mu _X = \qopname  \relax o{exp}{5/8}$ and $\sigma _X^2 = \left (\qopname  \relax o{exp}{1/4} - 1 \right ) \qopname  \relax o{exp}{5/4}$. The diagonal elements of $\boldsymbol  {A}$ are fixed at $-1$ since $\sigma _d^2 = 0$ and $\mu _D = -1$. Each probability is calculated from $100$ trials from $100$ simulated matrices $\boldsymbol  {M} = \boldsymbol  {XA}$.}}{13}}
\newlabel{fig:Xlognormal1}{{7}{13}}
\@writefile{lof}{\contentsline {figure}{\numberline {8}{\ignorespaces As in Figure 7\hbox {}, except now the conditional probability is weighted by feasibility.}}{13}}
\newlabel{fig:Xlognormal2}{{8}{13}}
\@writefile{lof}{\contentsline {figure}{\numberline {9}{\ignorespaces The conditional probability of a matrix $\boldsymbol  {M}$ becoming unstable given an stable interaction matrix $\boldsymbol  {A}$ with leading eigenvalue $-d$. The off-diagonal elements of $\boldsymbol  {A}$ follow a bivariate normal distribution and, for each $S$, $\mu $ =0, $\sigma = 1 / \sqrt  {S}$ and $\rho = -0.5$, $0$ or $0.5$. The elements of $\boldsymbol  {X}$ are drawn from a half-normal distribution shifted rightwards with support is $(1, \infty )$ and with theta parameter $\theta = 1$ so that $\mu _X = 2$ and $\sigma _X^2 = \pi /2 -1$. The diagonal elements of $\boldsymbol  {A}$ are fixed at $-1$ since $\sigma _d^2 = 0$ and $\mu _D = -1$. Each probability is calculated from $100$ trials from $100$ simulated matrices $\boldsymbol  {M} = \boldsymbol  {XA}$.}}{14}}
\newlabel{fig:Xhalfnormal1}{{9}{14}}
\@writefile{lof}{\contentsline {figure}{\numberline {10}{\ignorespaces As in Figure 9\hbox {}, except now the conditional probability is weighted by feasibility.}}{14}}
\newlabel{fig:Xhalfnormal2}{{10}{14}}
