"SDA","Act","Pred","SDX"
0.25,-1.01201914503452,-0.987762587529176,0.15
0.25,-1.05400677054517,-0.98702900966989,0.194736842105263
0.25,-1.00310619160919,-0.986295431810604,0.239473684210526
0.25,-0.992749979438113,-0.986295431810604,0.284210526315789
0.25,-0.997853124081183,-0.985561853951317,0.328947368421053
0.25,-0.996500351042671,-0.984828276092031,0.373684210526316
0.25,-1.0172041978799,-0.984094698232744,0.418421052631579
0.25,-0.997045768779984,-0.983361120373458,0.463157894736842
0.25,-0.997790841122649,-0.982627542514172,0.507894736842105
0.25,-0.986579132974338,-0.982627542514172,0.552631578947368
0.25,-1.01655236097259,-0.981893964654885,0.597368421052632
0.25,-0.994308756589529,-0.981160386795599,0.642105263157895
0.25,-0.982228706178661,-0.980426808936312,0.686842105263158
0.25,-0.973174267082832,-0.979693231077026,0.731578947368421
0.25,-0.983941886660927,-0.978959653217739,0.776315789473684
0.25,-0.994398179684007,-0.978959653217739,0.821052631578947
0.25,-1.01849940034746,-0.978226075358453,0.865789473684211
0.25,-1.00397640734718,-0.977492497499166,0.910526315789474
0.25,-0.976391153461283,-0.97675891963988,0.955263157894737
0.25,-0.986101572864741,-0.976025341780594,1
0.5,-0.922497162022641,-0.923207735911971,0.15
0.5,-0.893234868057737,-0.919539846615539,0.194736842105263
0.5,-0.882078894378279,-0.915871957319106,0.239473684210526
0.5,-0.948519113025577,-0.912204068022674,0.284210526315789
0.5,-0.926285661047153,-0.908536178726242,0.328947368421053
0.5,-0.929833591495828,-0.90486828942981,0.373684210526316
0.5,-0.90746527273941,-0.901200400133378,0.418421052631579
0.5,-0.880266940770124,-0.897532510836946,0.463157894736842
0.5,-0.936130624993279,-0.893864621540514,0.507894736842105
0.5,-0.974102589910006,-0.890930310103368,0.552631578947368
0.5,-0.868975508552344,-0.887262420806936,0.597368421052632
0.5,-0.886166184921162,-0.883594531510504,0.642105263157895
0.5,-0.925911782018929,-0.880660220073358,0.686842105263158
0.5,-0.892602272807867,-0.876992330776926,0.731578947368421
0.5,-0.860093579939913,-0.87405801933978,0.776315789473684
0.5,-0.885681228201518,-0.870390130043348,0.821052631578947
0.5,-0.844263997306058,-0.867455818606202,0.865789473684211
0.5,-0.915965243065579,-0.86378792930977,0.910526315789474
0.5,-0.89933580846693,-0.860853617872624,0.955263157894737
0.5,-0.891945053659299,-0.857919306435479,1
0.75,-0.742045603930977,-0.657652550850284,0.15
0.75,-0.664308511831088,-0.64811603867956,0.194736842105263
0.75,-0.568564560599337,-0.639313104368123,0.239473684210526
0.75,-0.587803292521876,-0.630510170056686,0.284210526315789
0.75,-0.626510827330765,-0.622440813604535,0.328947368421053
0.75,-0.661942032664081,-0.614371457152384,0.373684210526316
0.75,-0.560912694274402,-0.60703567855952,0.418421052631579
0.75,-0.49545216581257,-0.599699899966656,0.463157894736842
0.75,-0.592609235744861,-0.593097699233078,0.507894736842105
0.75,-0.64161355264444,-0.5864954984995,0.552631578947368
0.75,-0.628842721219737,-0.579893297765922,0.597368421052632
0.75,-0.584930800512293,-0.574024674891631,0.642105263157895
0.75,-0.552532829364547,-0.568156052017339,0.686842105263158
0.75,-0.606927215870886,-0.562287429143048,0.731578947368421
0.75,-0.505334715930612,-0.557152384128043,0.776315789473684
0.75,-0.561029098863273,-0.552017339113038,0.821052631578947
0.75,-0.561240926524435,-0.546882294098033,0.865789473684211
0.75,-0.58042114686708,-0.541747249083028,0.910526315789474
0.75,-0.554015010208368,-0.537345781927309,0.955263157894737
0.75,-0.544810652043775,-0.532944314771591,1
0.25,-1.02054860414333,-0.987762587529176,0.15
0.25,-1.00992675236188,-0.98702900966989,0.194736842105263
0.25,-1.01342163735849,-0.986295431810604,0.239473684210526
0.25,-0.998715947321557,-0.986295431810604,0.284210526315789
0.25,-0.980263625726784,-0.985561853951317,0.328947368421053
0.25,-1.00757778219157,-0.984828276092031,0.373684210526316
0.25,-1.0223760273836,-0.984094698232744,0.418421052631579
0.25,-0.993127088764874,-0.983361120373458,0.463157894736842
0.25,-0.993316579331138,-0.982627542514172,0.507894736842105
0.25,-1.02280701023465,-0.982627542514172,0.552631578947368
0.25,-0.973015784202474,-0.981893964654885,0.597368421052632
0.25,-1.00178495134111,-0.981160386795599,0.642105263157895
0.25,-0.997947276686641,-0.980426808936312,0.686842105263158
0.25,-0.973839165436238,-0.979693231077026,0.731578947368421
0.25,-0.993198088863983,-0.978959653217739,0.776315789473684
0.25,-0.990998860622067,-0.978959653217739,0.821052631578947
0.25,-0.988688869435302,-0.978226075358453,0.865789473684211
0.25,-0.964576497761024,-0.977492497499166,0.910526315789474
0.25,-0.974225170825946,-0.97675891963988,0.955263157894737
0.25,-0.996589428081,-0.976025341780594,1
0.5,-0.945266056523504,-0.923207735911971,0.15
0.5,-0.983001275783167,-0.919539846615539,0.194736842105263
0.5,-0.915675325376815,-0.915871957319106,0.239473684210526
0.5,-0.905982809284218,-0.912204068022674,0.284210526315789
0.5,-0.896078222944232,-0.908536178726242,0.328947368421053
0.5,-0.912301829301378,-0.90486828942981,0.373684210526316
0.5,-0.90422463872218,-0.901200400133378,0.418421052631579
0.5,-0.896934206174849,-0.897532510836946,0.463157894736842
0.5,-0.909918880539799,-0.893864621540514,0.507894736842105
0.5,-0.901696342215803,-0.890930310103368,0.552631578947368
0.5,-0.88860400213455,-0.887262420806936,0.597368421052632
0.5,-0.912746162007937,-0.883594531510504,0.642105263157895
0.5,-0.886072403950069,-0.880660220073358,0.686842105263158
0.5,-0.905259616490903,-0.876992330776926,0.731578947368421
0.5,-0.902670515599431,-0.87405801933978,0.776315789473684
0.5,-0.880484318334456,-0.870390130043348,0.821052631578947
0.5,-0.869548393864336,-0.867455818606202,0.865789473684211
0.5,-0.881959221826981,-0.86378792930977,0.910526315789474
0.5,-0.891678713593683,-0.860853617872624,0.955263157894737
0.5,-0.869510125325944,-0.857919306435479,1
0.75,-0.711517852009858,-0.657652550850284,0.15
0.75,-0.673410563298295,-0.64811603867956,0.194736842105263
0.75,-0.587854387918745,-0.639313104368123,0.239473684210526
0.75,-0.707982721161122,-0.630510170056686,0.284210526315789
0.75,-0.674841485518485,-0.622440813604535,0.328947368421053
0.75,-0.614766242003716,-0.614371457152384,0.373684210526316
0.75,-0.665701099098118,-0.60703567855952,0.418421052631579
0.75,-0.633155529422698,-0.599699899966656,0.463157894736842
0.75,-0.605802590794517,-0.593097699233078,0.507894736842105
0.75,-0.612659209215985,-0.5864954984995,0.552631578947368
0.75,-0.628707079645088,-0.579893297765922,0.597368421052632
0.75,-0.575707838245089,-0.574024674891631,0.642105263157895
0.75,-0.553783006411752,-0.568156052017339,0.686842105263158
0.75,-0.572377712104777,-0.562287429143048,0.731578947368421
0.75,-0.449025368565999,-0.557152384128043,0.776315789473684
0.75,-0.502129631563689,-0.552017339113038,0.821052631578947
0.75,-0.589349939621617,-0.546882294098033,0.865789473684211
0.75,-0.579437203458816,-0.541747249083028,0.910526315789474
0.75,-0.47999643474683,-0.537345781927309,0.955263157894737
0.75,-0.604937855471156,-0.532944314771591,1
0.25,-1.01960386972067,-0.987762587529176,0.15
0.25,-0.991651962649311,-0.98702900966989,0.194736842105263
0.25,-0.987958343042363,-0.986295431810604,0.239473684210526
0.25,-1.02115797001254,-0.986295431810604,0.284210526315789
0.25,-1.00554800766432,-0.985561853951317,0.328947368421053
0.25,-1.0134377761393,-0.984828276092031,0.373684210526316
0.25,-0.998480463360829,-0.984094698232744,0.418421052631579
0.25,-1.01550374082422,-0.983361120373458,0.463157894736842
0.25,-1.00565550280342,-0.982627542514172,0.507894736842105
0.25,-1.0401539545926,-0.982627542514172,0.552631578947368
0.25,-1.00372780861746,-0.981893964654885,0.597368421052632
0.25,-1.00800421624591,-0.981160386795599,0.642105263157895
0.25,-1.00740190540344,-0.980426808936312,0.686842105263158
0.25,-0.981091386924226,-0.979693231077026,0.731578947368421
0.25,-0.98443082455176,-0.978959653217739,0.776315789473684
0.25,-0.98422450948721,-0.978959653217739,0.821052631578947
0.25,-0.972979422181175,-0.978226075358453,0.865789473684211
0.25,-0.991886946687044,-0.977492497499166,0.910526315789474
0.25,-0.979465331646367,-0.97675891963988,0.955263157894737
0.25,-0.963654025539628,-0.976025341780594,1
0.5,-0.952679425873514,-0.923207735911971,0.15
0.5,-0.947339199666065,-0.919539846615539,0.194736842105263
0.5,-0.89498635448554,-0.915871957319106,0.239473684210526
0.5,-0.920823772341219,-0.912204068022674,0.284210526315789
0.5,-0.931661069665109,-0.908536178726242,0.328947368421053
0.5,-0.920785766066456,-0.90486828942981,0.373684210526316
0.5,-0.938790576252206,-0.901200400133378,0.418421052631579
0.5,-0.946772153587907,-0.897532510836946,0.463157894736842
0.5,-0.904120342102332,-0.893864621540514,0.507894736842105
0.5,-0.901652915091535,-0.890930310103368,0.552631578947368
0.5,-0.937612703629831,-0.887262420806936,0.597368421052632
0.5,-0.910544358012399,-0.883594531510504,0.642105263157895
0.5,-0.907660070350532,-0.880660220073358,0.686842105263158
0.5,-0.873182346476675,-0.876992330776926,0.731578947368421
0.5,-0.912290350099843,-0.87405801933978,0.776315789473684
0.5,-0.883404247545469,-0.870390130043348,0.821052631578947
0.5,-0.869954160844073,-0.867455818606202,0.865789473684211
0.5,-0.876004668812787,-0.86378792930977,0.910526315789474
0.5,-0.895100724141068,-0.860853617872624,0.955263157894737
0.5,-0.849829833305522,-0.857919306435479,1
0.75,-0.748120614892455,-0.657652550850284,0.15
0.75,-0.654866374694417,-0.64811603867956,0.194736842105263
0.75,-0.659793048511427,-0.639313104368123,0.239473684210526
0.75,-0.619158991620808,-0.630510170056686,0.284210526315789
0.75,-0.603774739538692,-0.622440813604535,0.328947368421053
0.75,-0.65983610330151,-0.614371457152384,0.373684210526316
0.75,-0.586432819797451,-0.60703567855952,0.418421052631579
0.75,-0.663530387232682,-0.599699899966656,0.463157894736842
0.75,-0.632522874847737,-0.593097699233078,0.507894736842105
0.75,-0.577824008715544,-0.5864954984995,0.552631578947368
0.75,-0.619410318780595,-0.579893297765922,0.597368421052632
0.75,-0.554444633323761,-0.574024674891631,0.642105263157895
0.75,-0.579335335697589,-0.568156052017339,0.686842105263158
0.75,-0.542122488095512,-0.562287429143048,0.731578947368421
0.75,-0.549559740457238,-0.557152384128043,0.776315789473684
0.75,-0.542751499921641,-0.552017339113038,0.821052631578947
0.75,-0.578191497137453,-0.546882294098033,0.865789473684211
0.75,-0.540321631171794,-0.541747249083028,0.910526315789474
0.75,-0.588418844663629,-0.537345781927309,0.955263157894737
0.75,-0.505658805823553,-0.532944314771591,1
0.25,-1.03095389461006,-0.987762587529176,0.15
0.25,-1.00410757126835,-0.98702900966989,0.194736842105263
0.25,-1.06160947016853,-0.986295431810604,0.239473684210526
0.25,-1.00660228536195,-0.986295431810604,0.284210526315789
0.25,-0.990266024891115,-0.985561853951317,0.328947368421053
0.25,-0.982922495959165,-0.984828276092031,0.373684210526316
0.25,-0.999211411420973,-0.984094698232744,0.418421052631579
0.25,-0.997569779311063,-0.983361120373458,0.463157894736842
0.25,-0.986075042331683,-0.982627542514172,0.507894736842105
0.25,-1.00612320608382,-0.982627542514172,0.552631578947368
0.25,-0.974061651303286,-0.981893964654885,0.597368421052632
0.25,-0.993398170004101,-0.981160386795599,0.642105263157895
0.25,-1.00464943176459,-0.980426808936312,0.686842105263158
0.25,-0.974751660944054,-0.979693231077026,0.731578947368421
0.25,-0.981952112282163,-0.978959653217739,0.776315789473684
0.25,-0.987407038230297,-0.978959653217739,0.821052631578947
0.25,-0.985380516965549,-0.978226075358453,0.865789473684211
0.25,-0.99016989111008,-0.977492497499166,0.910526315789474
0.25,-0.984621152556847,-0.97675891963988,0.955263157894737
0.25,-0.990456914670587,-0.976025341780594,1
0.5,-0.958591889933307,-0.923207735911971,0.15
0.5,-0.949161748556961,-0.919539846615539,0.194736842105263
0.5,-0.926995500820174,-0.915871957319106,0.239473684210526
0.5,-0.945927480381656,-0.912204068022674,0.284210526315789
0.5,-0.924695767237109,-0.908536178726242,0.328947368421053
0.5,-0.944472148356096,-0.90486828942981,0.373684210526316
0.5,-0.910317290147632,-0.901200400133378,0.418421052631579
0.5,-0.970987040821475,-0.897532510836946,0.463157894736842
0.5,-0.910957313287492,-0.893864621540514,0.507894736842105
0.5,-0.904180502755051,-0.890930310103368,0.552631578947368
0.5,-0.907762579221888,-0.887262420806936,0.597368421052632
0.5,-0.925741903743542,-0.883594531510504,0.642105263157895
0.5,-0.897108832598251,-0.880660220073358,0.686842105263158
0.5,-0.864414570287793,-0.876992330776926,0.731578947368421
0.5,-0.884585129939466,-0.87405801933978,0.776315789473684
0.5,-0.876001832573537,-0.870390130043348,0.821052631578947
0.5,-0.867742413408128,-0.867455818606202,0.865789473684211
0.5,-0.847391855123098,-0.86378792930977,0.910526315789474
0.5,-0.863340742532918,-0.860853617872624,0.955263157894737
0.5,-0.928211465251549,-0.857919306435479,1
0.75,-0.684813954507054,-0.657652550850284,0.15
0.75,-0.690604086763264,-0.64811603867956,0.194736842105263
0.75,-0.654738042566515,-0.639313104368123,0.239473684210526
0.75,-0.643230728993224,-0.630510170056686,0.284210526315789
0.75,-0.685681724457869,-0.622440813604535,0.328947368421053
0.75,-0.615415816763479,-0.614371457152384,0.373684210526316
0.75,-0.53541592039995,-0.60703567855952,0.418421052631579
0.75,-0.642182368376335,-0.599699899966656,0.463157894736842
0.75,-0.563356248255776,-0.593097699233078,0.507894736842105
0.75,-0.607163751197399,-0.5864954984995,0.552631578947368
0.75,-0.628859036151334,-0.579893297765922,0.597368421052632
0.75,-0.578865099001178,-0.574024674891631,0.642105263157895
0.75,-0.571209193757916,-0.568156052017339,0.686842105263158
0.75,-0.571592309329843,-0.562287429143048,0.731578947368421
0.75,-0.578757613884339,-0.557152384128043,0.776315789473684
0.75,-0.615081053573335,-0.552017339113038,0.821052631578947
0.75,-0.563130893085023,-0.546882294098033,0.865789473684211
0.75,-0.594620408883305,-0.541747249083028,0.910526315789474
0.75,-0.580233782757211,-0.537345781927309,0.955263157894737
0.75,-0.553397439583473,-0.532944314771591,1
0.25,-1.00244389873258,-0.987762587529176,0.15
0.25,-1.01404782665763,-0.98702900966989,0.194736842105263
0.25,-0.987036480827627,-0.986295431810604,0.239473684210526
0.25,-1.0084534068984,-0.986295431810604,0.284210526315789
0.25,-1.00329464921389,-0.985561853951317,0.328947368421053
0.25,-0.991075371017389,-0.984828276092031,0.373684210526316
0.25,-0.987298255834141,-0.984094698232744,0.418421052631579
0.25,-0.998589336826755,-0.983361120373458,0.463157894736842
0.25,-1.02385883217681,-0.982627542514172,0.507894736842105
0.25,-1.01791812526096,-0.982627542514172,0.552631578947368
0.25,-0.969444697969541,-0.981893964654885,0.597368421052632
0.25,-1.01858082392471,-0.981160386795599,0.642105263157895
0.25,-0.999681258733976,-0.980426808936312,0.686842105263158
0.25,-0.991429017398834,-0.979693231077026,0.731578947368421
0.25,-0.979811868670903,-0.978959653217739,0.776315789473684
0.25,-1.00434541135089,-0.978959653217739,0.821052631578947
0.25,-0.961881625888445,-0.978226075358453,0.865789473684211
0.25,-1.01198536990168,-0.977492497499166,0.910526315789474
0.25,-0.984932446263326,-0.97675891963988,0.955263157894737
0.25,-0.994158442540845,-0.976025341780594,1
0.5,-0.922582528343214,-0.923207735911971,0.15
0.5,-0.986182194395313,-0.919539846615539,0.194736842105263
0.5,-0.951101143398777,-0.915871957319106,0.239473684210526
0.5,-0.935235388519047,-0.912204068022674,0.284210526315789
0.5,-0.887660590610537,-0.908536178726242,0.328947368421053
0.5,-0.927588627173431,-0.90486828942981,0.373684210526316
0.5,-0.879119284888977,-0.901200400133378,0.418421052631579
0.5,-0.955025403901151,-0.897532510836946,0.463157894736842
0.5,-0.887951235223474,-0.893864621540514,0.507894736842105
0.5,-0.861889280113758,-0.890930310103368,0.552631578947368
0.5,-0.893038271549986,-0.887262420806936,0.597368421052632
0.5,-0.924540320587183,-0.883594531510504,0.642105263157895
0.5,-0.863546357867201,-0.880660220073358,0.686842105263158
0.5,-0.873656194671154,-0.876992330776926,0.731578947368421
0.5,-0.87939865890151,-0.87405801933978,0.776315789473684
0.5,-0.864496294911722,-0.870390130043348,0.821052631578947
0.5,-0.932136316951556,-0.867455818606202,0.865789473684211
0.5,-0.8528445596463,-0.86378792930977,0.910526315789474
0.5,-0.902913266159038,-0.860853617872624,0.955263157894737
0.5,-0.878907245479862,-0.857919306435479,1
0.75,-0.695867500058576,-0.657652550850284,0.15
0.75,-0.633938276990885,-0.64811603867956,0.194736842105263
0.75,-0.633062750784246,-0.639313104368123,0.239473684210526
0.75,-0.664195796719859,-0.630510170056686,0.284210526315789
0.75,-0.663597336703988,-0.622440813604535,0.328947368421053
0.75,-0.68690476846004,-0.614371457152384,0.373684210526316
0.75,-0.567496857839385,-0.60703567855952,0.418421052631579
0.75,-0.518145825250947,-0.599699899966656,0.463157894736842
0.75,-0.650066066128601,-0.593097699233078,0.507894736842105
0.75,-0.630706674448302,-0.5864954984995,0.552631578947368
0.75,-0.58470800242717,-0.579893297765922,0.597368421052632
0.75,-0.634933960247473,-0.574024674891631,0.642105263157895
0.75,-0.614183098190774,-0.568156052017339,0.686842105263158
0.75,-0.536859345249899,-0.562287429143048,0.731578947368421
0.75,-0.581956506948336,-0.557152384128043,0.776315789473684
0.75,-0.539672618884924,-0.552017339113038,0.821052631578947
0.75,-0.559615873410739,-0.546882294098033,0.865789473684211
0.75,-0.5807991693426,-0.541747249083028,0.910526315789474
0.75,-0.602763817185178,-0.537345781927309,0.955263157894737
0.75,-0.56787768113057,-0.532944314771591,1
0.25,-1.0044516953487,-0.987762587529176,0.15
0.25,-1.02063390379239,-0.98702900966989,0.194736842105263
0.25,-1.00855958202182,-0.986295431810604,0.239473684210526
0.25,-1.00018822322955,-0.986295431810604,0.284210526315789
0.25,-1.01491838903139,-0.985561853951317,0.328947368421053
0.25,-0.98907786839233,-0.984828276092031,0.373684210526316
0.25,-1.00939674945586,-0.984094698232744,0.418421052631579
0.25,-1.00638614686661,-0.983361120373458,0.463157894736842
0.25,-1.00077665544895,-0.982627542514172,0.507894736842105
0.25,-0.981350136023735,-0.982627542514172,0.552631578947368
0.25,-0.98566328862855,-0.981893964654885,0.597368421052632
0.25,-0.998169883413957,-0.981160386795599,0.642105263157895
0.25,-1.00384806939387,-0.980426808936312,0.686842105263158
0.25,-0.992985637156863,-0.979693231077026,0.731578947368421
0.25,-0.997201877621421,-0.978959653217739,0.776315789473684
0.25,-0.995714190239567,-0.978959653217739,0.821052631578947
0.25,-0.999939063346347,-0.978226075358453,0.865789473684211
0.25,-0.989344612921926,-0.977492497499166,0.910526315789474
0.25,-1.00120505277012,-0.97675891963988,0.955263157894737
0.25,-1.00494679336262,-0.976025341780594,1
0.5,-0.961092186596237,-0.923207735911971,0.15
0.5,-0.944498539488766,-0.919539846615539,0.194736842105263
0.5,-0.917769932664872,-0.915871957319106,0.239473684210526
0.5,-0.914711939009038,-0.912204068022674,0.284210526315789
0.5,-0.892784756201884,-0.908536178726242,0.328947368421053
0.5,-0.942826837722635,-0.90486828942981,0.373684210526316
0.5,-0.902376973587289,-0.901200400133378,0.418421052631579
0.5,-0.930034255137986,-0.897532510836946,0.463157894736842
0.5,-0.876297547130217,-0.893864621540514,0.507894736842105
0.5,-0.914955929991671,-0.890930310103368,0.552631578947368
0.5,-0.900740378729311,-0.887262420806936,0.597368421052632
0.5,-0.830185493121343,-0.883594531510504,0.642105263157895
0.5,-0.914749187465295,-0.880660220073358,0.686842105263158
0.5,-0.942884478226403,-0.876992330776926,0.731578947368421
0.5,-0.860363314360384,-0.87405801933978,0.776315789473684
0.5,-0.858410273714046,-0.870390130043348,0.821052631578947
0.5,-0.89996533279512,-0.867455818606202,0.865789473684211
0.5,-0.869031402989991,-0.86378792930977,0.910526315789474
0.5,-0.908494996883548,-0.860853617872624,0.955263157894737
0.5,-0.892729867077759,-0.857919306435479,1
0.75,-0.739888904139299,-0.657652550850284,0.15
0.75,-0.765156300849477,-0.64811603867956,0.194736842105263
0.75,-0.648954921215727,-0.639313104368123,0.239473684210526
0.75,-0.630853134140709,-0.630510170056686,0.284210526315789
0.75,-0.646795030314432,-0.622440813604535,0.328947368421053
0.75,-0.665019586129859,-0.614371457152384,0.373684210526316
0.75,-0.713657421093858,-0.60703567855952,0.418421052631579
0.75,-0.651391936440895,-0.599699899966656,0.463157894736842
0.75,-0.646190707083019,-0.593097699233078,0.507894736842105
0.75,-0.631178100992698,-0.5864954984995,0.552631578947368
0.75,-0.635956444622599,-0.579893297765922,0.597368421052632
0.75,-0.606357027636741,-0.574024674891631,0.642105263157895
0.75,-0.595180466497595,-0.568156052017339,0.686842105263158
0.75,-0.530234807206211,-0.562287429143048,0.731578947368421
0.75,-0.565395251882733,-0.557152384128043,0.776315789473684
0.75,-0.505130187427658,-0.552017339113038,0.821052631578947
0.75,-0.583766441941391,-0.546882294098033,0.865789473684211
0.75,-0.611498979297776,-0.541747249083028,0.910526315789474
0.75,-0.525263793907294,-0.537345781927309,0.955263157894737
0.75,-0.559108738078405,-0.532944314771591,1
0.25,-0.999005150886979,-0.987762587529176,0.15
0.25,-1.0043015011861,-0.98702900966989,0.194736842105263
0.25,-1.01208091209052,-0.986295431810604,0.239473684210526
0.25,-1.01741117034068,-0.986295431810604,0.284210526315789
0.25,-1.02662039290129,-0.985561853951317,0.328947368421053
0.25,-0.97962025883861,-0.984828276092031,0.373684210526316
0.25,-0.989835039607435,-0.984094698232744,0.418421052631579
0.25,-0.984008819466225,-0.983361120373458,0.463157894736842
0.25,-0.993234903241967,-0.982627542514172,0.507894736842105
0.25,-0.985697178191823,-0.982627542514172,0.552631578947368
0.25,-0.997067081584529,-0.981893964654885,0.597368421052632
0.25,-1.00253104456383,-0.981160386795599,0.642105263157895
0.25,-1.01259495508449,-0.980426808936312,0.686842105263158
0.25,-0.976292923638133,-0.979693231077026,0.731578947368421
0.25,-0.999799547962317,-0.978959653217739,0.776315789473684
0.25,-0.994525653439238,-0.978959653217739,0.821052631578947
0.25,-0.99470520577222,-0.978226075358453,0.865789473684211
0.25,-0.989508560664269,-0.977492497499166,0.910526315789474
0.25,-0.993196482782463,-0.97675891963988,0.955263157894737
0.25,-0.972849338892767,-0.976025341780594,1
0.5,-0.978579544276646,-0.923207735911971,0.15
0.5,-0.947687109829879,-0.919539846615539,0.194736842105263
0.5,-0.915568845801202,-0.915871957319106,0.239473684210526
0.5,-0.933661489647093,-0.912204068022674,0.284210526315789
0.5,-0.958824838013392,-0.908536178726242,0.328947368421053
0.5,-0.934563584533533,-0.90486828942981,0.373684210526316
0.5,-0.983878479103025,-0.901200400133378,0.418421052631579
0.5,-0.942712361725236,-0.897532510836946,0.463157894736842
0.5,-0.960056668231864,-0.893864621540514,0.507894736842105
0.5,-0.906057479589644,-0.890930310103368,0.552631578947368
0.5,-0.894499603954186,-0.887262420806936,0.597368421052632
0.5,-0.901080909268459,-0.883594531510504,0.642105263157895
0.5,-0.915963123677608,-0.880660220073358,0.686842105263158
0.5,-0.873571614452462,-0.876992330776926,0.731578947368421
0.5,-0.886177305084828,-0.87405801933978,0.776315789473684
0.5,-0.903351506499002,-0.870390130043348,0.821052631578947
0.5,-0.871766407142611,-0.867455818606202,0.865789473684211
0.5,-0.891612561199254,-0.86378792930977,0.910526315789474
0.5,-0.891331689522696,-0.860853617872624,0.955263157894737
0.5,-0.862874001803777,-0.857919306435479,1
0.75,-0.661811739251579,-0.657652550850284,0.15
0.75,-0.642475190674322,-0.64811603867956,0.194736842105263
0.75,-0.708107843062565,-0.639313104368123,0.239473684210526
0.75,-0.563568846934857,-0.630510170056686,0.284210526315789
0.75,-0.649282413866172,-0.622440813604535,0.328947368421053
0.75,-0.554333635781806,-0.614371457152384,0.373684210526316
0.75,-0.673877346706636,-0.60703567855952,0.418421052631579
0.75,-0.610814567424162,-0.599699899966656,0.463157894736842
0.75,-0.576318977012221,-0.593097699233078,0.507894736842105
0.75,-0.620678211028292,-0.5864954984995,0.552631578947368
0.75,-0.618011828566812,-0.579893297765922,0.597368421052632
0.75,-0.67273777958431,-0.574024674891631,0.642105263157895
0.75,-0.512182210126188,-0.568156052017339,0.686842105263158
0.75,-0.482899104516807,-0.562287429143048,0.731578947368421
0.75,-0.61829783999701,-0.557152384128043,0.776315789473684
0.75,-0.534388305566968,-0.552017339113038,0.821052631578947
0.75,-0.557300387552585,-0.546882294098033,0.865789473684211
0.75,-0.549615737956849,-0.541747249083028,0.910526315789474
0.75,-0.564872423406993,-0.537345781927309,0.955263157894737
0.75,-0.603004156822491,-0.532944314771591,1
0.25,-1.03733669138558,-0.987762587529176,0.15
0.25,-1.02337186564155,-0.98702900966989,0.194736842105263
0.25,-0.993059893392539,-0.986295431810604,0.239473684210526
0.25,-1.03373856099522,-0.986295431810604,0.284210526315789
0.25,-0.996796760407215,-0.985561853951317,0.328947368421053
0.25,-1.00572096667248,-0.984828276092031,0.373684210526316
0.25,-0.994631713269632,-0.984094698232744,0.418421052631579
0.25,-1.00047142916337,-0.983361120373458,0.463157894736842
0.25,-1.00798451596053,-0.982627542514172,0.507894736842105
0.25,-0.980769211251368,-0.982627542514172,0.552631578947368
0.25,-1.01489698449003,-0.981893964654885,0.597368421052632
0.25,-0.985623485501642,-0.981160386795599,0.642105263157895
0.25,-0.997551012506057,-0.980426808936312,0.686842105263158
0.25,-1.00221836055235,-0.979693231077026,0.731578947368421
0.25,-1.02775192936173,-0.978959653217739,0.776315789473684
0.25,-0.998067031256295,-0.978959653217739,0.821052631578947
0.25,-1.00660807148655,-0.978226075358453,0.865789473684211
0.25,-0.973803558253976,-0.977492497499166,0.910526315789474
0.25,-0.981010347277446,-0.97675891963988,0.955263157894737
0.25,-0.979599729773645,-0.976025341780594,1
0.5,-0.95030675824632,-0.923207735911971,0.15
0.5,-0.925123218257795,-0.919539846615539,0.194736842105263
0.5,-0.959381060416952,-0.915871957319106,0.239473684210526
0.5,-0.949297378895368,-0.912204068022674,0.284210526315789
0.5,-0.93796162338113,-0.908536178726242,0.328947368421053
0.5,-0.989024462716901,-0.90486828942981,0.373684210526316
0.5,-0.922010309156648,-0.901200400133378,0.418421052631579
0.5,-0.95983610105184,-0.897532510836946,0.463157894736842
0.5,-0.920996298657731,-0.893864621540514,0.507894736842105
0.5,-0.895171148831907,-0.890930310103368,0.552631578947368
0.5,-0.917370706314541,-0.887262420806936,0.597368421052632
0.5,-0.904312980496061,-0.883594531510504,0.642105263157895
0.5,-0.874374786495833,-0.880660220073358,0.686842105263158
0.5,-0.932483470109726,-0.876992330776926,0.731578947368421
0.5,-0.901511801118972,-0.87405801933978,0.776315789473684
0.5,-0.856975780472996,-0.870390130043348,0.821052631578947
0.5,-0.845062776885762,-0.867455818606202,0.865789473684211
0.5,-0.896266732620254,-0.86378792930977,0.910526315789474
0.5,-0.888896932177898,-0.860853617872624,0.955263157894737
0.5,-0.861202225081135,-0.857919306435479,1
0.75,-0.667480089793769,-0.657652550850284,0.15
0.75,-0.705591487546063,-0.64811603867956,0.194736842105263
0.75,-0.715785942156068,-0.639313104368123,0.239473684210526
0.75,-0.647913680924882,-0.630510170056686,0.284210526315789
0.75,-0.658471259721928,-0.622440813604535,0.328947368421053
0.75,-0.66285603165396,-0.614371457152384,0.373684210526316
0.75,-0.615607167825158,-0.60703567855952,0.418421052631579
0.75,-0.659331990929982,-0.599699899966656,0.463157894736842
0.75,-0.611348941344944,-0.593097699233078,0.507894736842105
0.75,-0.531806742811639,-0.5864954984995,0.552631578947368
0.75,-0.638310419416665,-0.579893297765922,0.597368421052632
0.75,-0.539841177834054,-0.574024674891631,0.642105263157895
0.75,-0.574935960776536,-0.568156052017339,0.686842105263158
0.75,-0.509406304902767,-0.562287429143048,0.731578947368421
0.75,-0.583491847789354,-0.557152384128043,0.776315789473684
0.75,-0.539419846992591,-0.552017339113038,0.821052631578947
0.75,-0.592103859107648,-0.546882294098033,0.865789473684211
0.75,-0.566238200237731,-0.541747249083028,0.910526315789474
0.75,-0.516570008340863,-0.537345781927309,0.955263157894737
0.75,-0.545776077827907,-0.532944314771591,1
0.25,-1.00097856551561,-0.987762587529176,0.15
0.25,-0.99062207125287,-0.98702900966989,0.194736842105263
0.25,-1.07008351043918,-0.986295431810604,0.239473684210526
0.25,-1.00658582129609,-0.986295431810604,0.284210526315789
0.25,-0.995215679000145,-0.985561853951317,0.328947368421053
0.25,-1.0001013445859,-0.984828276092031,0.373684210526316
0.25,-0.996322083177723,-0.984094698232744,0.418421052631579
0.25,-1.02142880824931,-0.983361120373458,0.463157894736842
0.25,-1.01862028050003,-0.982627542514172,0.507894736842105
0.25,-1.00041727297594,-0.982627542514172,0.552631578947368
0.25,-1.00005924390234,-0.981893964654885,0.597368421052632
0.25,-1.00889325598785,-0.981160386795599,0.642105263157895
0.25,-0.990220262081681,-0.980426808936312,0.686842105263158
0.25,-0.977069435699152,-0.979693231077026,0.731578947368421
0.25,-1.01411406771285,-0.978959653217739,0.776315789473684
0.25,-1.00329463716083,-0.978959653217739,0.821052631578947
0.25,-1.00781809303074,-0.978226075358453,0.865789473684211
0.25,-0.978985073467812,-0.977492497499166,0.910526315789474
0.25,-0.97216606727257,-0.97675891963988,0.955263157894737
0.25,-0.970210862478915,-0.976025341780594,1
0.5,-0.901866085926977,-0.923207735911971,0.15
0.5,-0.933807011640564,-0.919539846615539,0.194736842105263
0.5,-0.958332597193781,-0.915871957319106,0.239473684210526
0.5,-0.955282477332279,-0.912204068022674,0.284210526315789
0.5,-0.970508157342396,-0.908536178726242,0.328947368421053
0.5,-0.914269813884976,-0.90486828942981,0.373684210526316
0.5,-0.899497049700608,-0.901200400133378,0.418421052631579
0.5,-0.909186759492153,-0.897532510836946,0.463157894736842
0.5,-0.91390790431457,-0.893864621540514,0.507894736842105
0.5,-0.897039483053155,-0.890930310103368,0.552631578947368
0.5,-0.908478598241534,-0.887262420806936,0.597368421052632
0.5,-0.939879455914015,-0.883594531510504,0.642105263157895
0.5,-0.867094974893398,-0.880660220073358,0.686842105263158
0.5,-0.910122438698636,-0.876992330776926,0.731578947368421
0.5,-0.901199611281841,-0.87405801933978,0.776315789473684
0.5,-0.895520422030573,-0.870390130043348,0.821052631578947
0.5,-0.863875763344081,-0.867455818606202,0.865789473684211
0.5,-0.880021344413288,-0.86378792930977,0.910526315789474
0.5,-0.873978166016219,-0.860853617872624,0.955263157894737
0.5,-0.892320518272602,-0.857919306435479,1
0.75,-0.691073688284364,-0.657652550850284,0.15
0.75,-0.64591494009438,-0.64811603867956,0.194736842105263
0.75,-0.664674597650023,-0.639313104368123,0.239473684210526
0.75,-0.684879007398169,-0.630510170056686,0.284210526315789
0.75,-0.646633188652657,-0.622440813604535,0.328947368421053
0.75,-0.585282259503177,-0.614371457152384,0.373684210526316
0.75,-0.657369573329208,-0.60703567855952,0.418421052631579
0.75,-0.608629276658681,-0.599699899966656,0.463157894736842
0.75,-0.615880210223347,-0.593097699233078,0.507894736842105
0.75,-0.584206623238251,-0.5864954984995,0.552631578947368
0.75,-0.637243113877026,-0.579893297765922,0.597368421052632
0.75,-0.560244688489525,-0.574024674891631,0.642105263157895
0.75,-0.618317124039742,-0.568156052017339,0.686842105263158
0.75,-0.577710415923972,-0.562287429143048,0.731578947368421
0.75,-0.496709347438355,-0.557152384128043,0.776315789473684
0.75,-0.573823160932,-0.552017339113038,0.821052631578947
0.75,-0.598161000528058,-0.546882294098033,0.865789473684211
0.75,-0.529717732473439,-0.541747249083028,0.910526315789474
0.75,-0.579127330561474,-0.537345781927309,0.955263157894737
0.75,-0.619021698217826,-0.532944314771591,1
0.25,-0.983438127104012,-0.987762587529176,0.15
0.25,-1.02499424478376,-0.98702900966989,0.194736842105263
0.25,-1.01023880847897,-0.986295431810604,0.239473684210526
0.25,-1.00197107153586,-0.986295431810604,0.284210526315789
0.25,-0.999936332543272,-0.985561853951317,0.328947368421053
0.25,-1.00128509209659,-0.984828276092031,0.373684210526316
0.25,-0.988747415474791,-0.984094698232744,0.418421052631579
0.25,-0.99772777762886,-0.983361120373458,0.463157894736842
0.25,-0.994704446744798,-0.982627542514172,0.507894736842105
0.25,-0.99547094407267,-0.982627542514172,0.552631578947368
0.25,-1.00656081160511,-0.981893964654885,0.597368421052632
0.25,-1.00188550237999,-0.981160386795599,0.642105263157895
0.25,-1.0062790603674,-0.980426808936312,0.686842105263158
0.25,-1.00524892580095,-0.979693231077026,0.731578947368421
0.25,-0.987133749904505,-0.978959653217739,0.776315789473684
0.25,-1.02874934252785,-0.978959653217739,0.821052631578947
0.25,-0.99051729861389,-0.978226075358453,0.865789473684211
0.25,-0.979060146804297,-0.977492497499166,0.910526315789474
0.25,-1.00422679818306,-0.97675891963988,0.955263157894737
0.25,-1.00865141727165,-0.976025341780594,1
0.5,-0.936584452017305,-0.923207735911971,0.15
0.5,-0.990793026198099,-0.919539846615539,0.194736842105263
0.5,-0.970051913947306,-0.915871957319106,0.239473684210526
0.5,-0.876622762665451,-0.912204068022674,0.284210526315789
0.5,-0.906084384541286,-0.908536178726242,0.328947368421053
0.5,-0.893979436974513,-0.90486828942981,0.373684210526316
0.5,-0.94614653340093,-0.901200400133378,0.418421052631579
0.5,-0.92204845064675,-0.897532510836946,0.463157894736842
0.5,-0.886959078803495,-0.893864621540514,0.507894736842105
0.5,-0.960913347595935,-0.890930310103368,0.552631578947368
0.5,-0.926512570690244,-0.887262420806936,0.597368421052632
0.5,-0.856044178204259,-0.883594531510504,0.642105263157895
0.5,-0.853129458076898,-0.880660220073358,0.686842105263158
0.5,-0.925340568496176,-0.876992330776926,0.731578947368421
0.5,-0.888356724194651,-0.87405801933978,0.776315789473684
0.5,-0.867601908987767,-0.870390130043348,0.821052631578947
0.5,-0.879100658370752,-0.867455818606202,0.865789473684211
0.5,-0.875716437673988,-0.86378792930977,0.910526315789474
0.5,-0.91327531426122,-0.860853617872624,0.955263157894737
0.5,-0.851922920815021,-0.857919306435479,1
0.75,-0.664801926808907,-0.657652550850284,0.15
0.75,-0.705803425348329,-0.64811603867956,0.194736842105263
0.75,-0.72687421221026,-0.639313104368123,0.239473684210526
0.75,-0.613281307542239,-0.630510170056686,0.284210526315789
0.75,-0.699361436466828,-0.622440813604535,0.328947368421053
0.75,-0.582508940194976,-0.614371457152384,0.373684210526316
0.75,-0.645930481752132,-0.60703567855952,0.418421052631579
0.75,-0.591251484084694,-0.599699899966656,0.463157894736842
0.75,-0.483908614730739,-0.593097699233078,0.507894736842105
0.75,-0.586451688489212,-0.5864954984995,0.552631578947368
0.75,-0.642272969113266,-0.579893297765922,0.597368421052632
0.75,-0.536329027175686,-0.574024674891631,0.642105263157895
0.75,-0.525797016731218,-0.568156052017339,0.686842105263158
0.75,-0.609559772949238,-0.562287429143048,0.731578947368421
0.75,-0.567061432985011,-0.557152384128043,0.776315789473684
0.75,-0.589322642903286,-0.552017339113038,0.821052631578947
0.75,-0.59542762085571,-0.546882294098033,0.865789473684211
0.75,-0.511694753743359,-0.541747249083028,0.910526315789474
0.75,-0.505582491912557,-0.537345781927309,0.955263157894737
0.75,-0.535458315484307,-0.532944314771591,1
0.25,-0.991138119946518,-0.987762587529176,0.15
0.25,-1.01616482256347,-0.98702900966989,0.194736842105263
0.25,-0.983205657414885,-0.986295431810604,0.239473684210526
0.25,-0.980663035651886,-0.986295431810604,0.284210526315789
0.25,-0.998203263266569,-0.985561853951317,0.328947368421053
0.25,-1.01905898186884,-0.984828276092031,0.373684210526316
0.25,-0.985530292355272,-0.984094698232744,0.418421052631579
0.25,-1.01521701029063,-0.983361120373458,0.463157894736842
0.25,-1.03505759287195,-0.982627542514172,0.507894736842105
0.25,-1.01564830282044,-0.982627542514172,0.552631578947368
0.25,-1.00042754323509,-0.981893964654885,0.597368421052632
0.25,-1.00548444323404,-0.981160386795599,0.642105263157895
0.25,-0.994449820179512,-0.980426808936312,0.686842105263158
0.25,-1.01866428656218,-0.979693231077026,0.731578947368421
0.25,-0.980739241437371,-0.978959653217739,0.776315789473684
0.25,-0.981367582232495,-0.978959653217739,0.821052631578947
0.25,-0.974634018648199,-0.978226075358453,0.865789473684211
0.25,-1.00063893425891,-0.977492497499166,0.910526315789474
0.25,-0.983225568301247,-0.97675891963988,0.955263157894737
0.25,-1.01559881340872,-0.976025341780594,1
0.5,-0.962867803118861,-0.923207735911971,0.15
0.5,-0.910841945174438,-0.919539846615539,0.194736842105263
0.5,-0.92885600555077,-0.915871957319106,0.239473684210526
0.5,-0.921699729612434,-0.912204068022674,0.284210526315789
0.5,-0.918466133160141,-0.908536178726242,0.328947368421053
0.5,-0.927497836516589,-0.90486828942981,0.373684210526316
0.5,-0.899703050450076,-0.901200400133378,0.418421052631579
0.5,-0.908264540738512,-0.897532510836946,0.463157894736842
0.5,-0.943148040057883,-0.893864621540514,0.507894736842105
0.5,-0.936018266773222,-0.890930310103368,0.552631578947368
0.5,-0.905996213237458,-0.887262420806936,0.597368421052632
0.5,-0.884352396685625,-0.883594531510504,0.642105263157895
0.5,-0.896784489863177,-0.880660220073358,0.686842105263158
0.5,-0.901969235232976,-0.876992330776926,0.731578947368421
0.5,-0.894787078231413,-0.87405801933978,0.776315789473684
0.5,-0.857833099346041,-0.870390130043348,0.821052631578947
0.5,-0.888514023078495,-0.867455818606202,0.865789473684211
0.5,-0.868877860655338,-0.86378792930977,0.910526315789474
0.5,-0.880543462567054,-0.860853617872624,0.955263157894737
0.5,-0.889149937548749,-0.857919306435479,1
0.75,-0.673646740196993,-0.657652550850284,0.15
0.75,-0.622348777781706,-0.64811603867956,0.194736842105263
0.75,-0.622946156597061,-0.639313104368123,0.239473684210526
0.75,-0.652702381137654,-0.630510170056686,0.284210526315789
0.75,-0.621655074748339,-0.622440813604535,0.328947368421053
0.75,-0.581185647096776,-0.614371457152384,0.373684210526316
0.75,-0.610343140204615,-0.60703567855952,0.418421052631579
0.75,-0.710550106331228,-0.599699899966656,0.463157894736842
0.75,-0.653813729162097,-0.593097699233078,0.507894736842105
0.75,-0.569772940897761,-0.5864954984995,0.552631578947368
0.75,-0.56556954793923,-0.579893297765922,0.597368421052632
0.75,-0.539178913569468,-0.574024674891631,0.642105263157895
0.75,-0.557627409697047,-0.568156052017339,0.686842105263158
0.75,-0.579189459448605,-0.562287429143048,0.731578947368421
0.75,-0.567203573876073,-0.557152384128043,0.776315789473684
0.75,-0.518802565463536,-0.552017339113038,0.821052631578947
0.75,-0.646598617934621,-0.546882294098033,0.865789473684211
0.75,-0.540035100716488,-0.541747249083028,0.910526315789474
0.75,-0.577808464949728,-0.537345781927309,0.955263157894737
0.75,-0.554001288117864,-0.532944314771591,1
0.25,-0.99349800062193,-0.987762587529176,0.15
0.25,-0.989794884312975,-0.98702900966989,0.194736842105263
0.25,-1.0154569579565,-0.986295431810604,0.239473684210526
0.25,-0.996257170358761,-0.986295431810604,0.284210526315789
0.25,-1.00830122890834,-0.985561853951317,0.328947368421053
0.25,-0.993111265979235,-0.984828276092031,0.373684210526316
0.25,-1.00995134907815,-0.984094698232744,0.418421052631579
0.25,-0.965176383583902,-0.983361120373458,0.463157894736842
0.25,-0.977436107013408,-0.982627542514172,0.507894736842105
0.25,-0.996696367346576,-0.982627542514172,0.552631578947368
0.25,-1.00665474825354,-0.981893964654885,0.597368421052632
0.25,-1.00761203178696,-0.981160386795599,0.642105263157895
0.25,-1.00082377127611,-0.980426808936312,0.686842105263158
0.25,-0.99873049528528,-0.979693231077026,0.731578947368421
0.25,-1.00202200431551,-0.978959653217739,0.776315789473684
0.25,-1.03004770996262,-0.978959653217739,0.821052631578947
0.25,-0.982866043100349,-0.978226075358453,0.865789473684211
0.25,-0.997570526865053,-0.977492497499166,0.910526315789474
0.25,-0.988909996181215,-0.97675891963988,0.955263157894737
0.25,-0.990761585568111,-0.976025341780594,1
0.5,-0.917455374388157,-0.923207735911971,0.15
0.5,-0.956709777139725,-0.919539846615539,0.194736842105263
0.5,-0.867753732330772,-0.915871957319106,0.239473684210526
0.5,-0.910483413550673,-0.912204068022674,0.284210526315789
0.5,-0.930508108344802,-0.908536178726242,0.328947368421053
0.5,-0.931020341296035,-0.90486828942981,0.373684210526316
0.5,-0.892924362445044,-0.901200400133378,0.418421052631579
0.5,-0.942294936639699,-0.897532510836946,0.463157894736842
0.5,-0.961492762922164,-0.893864621540514,0.507894736842105
0.5,-0.841585737383753,-0.890930310103368,0.552631578947368
0.5,-0.944326513396707,-0.887262420806936,0.597368421052632
0.5,-0.853350785662334,-0.883594531510504,0.642105263157895
0.5,-0.916702500641803,-0.880660220073358,0.686842105263158
0.5,-0.891028247449665,-0.876992330776926,0.731578947368421
0.5,-0.880557645654482,-0.87405801933978,0.776315789473684
0.5,-0.90193218398471,-0.870390130043348,0.821052631578947
0.5,-0.855807825728986,-0.867455818606202,0.865789473684211
0.5,-0.900372627805638,-0.86378792930977,0.910526315789474
0.5,-0.868476287130021,-0.860853617872624,0.955263157894737
0.5,-0.837594278546208,-0.857919306435479,1
0.75,-0.644726808200253,-0.657652550850284,0.15
0.75,-0.651672118877094,-0.64811603867956,0.194736842105263
0.75,-0.652255649446166,-0.639313104368123,0.239473684210526
0.75,-0.599929751845539,-0.630510170056686,0.284210526315789
0.75,-0.667013325142368,-0.622440813604535,0.328947368421053
0.75,-0.682407710057934,-0.614371457152384,0.373684210526316
0.75,-0.640619179515433,-0.60703567855952,0.418421052631579
0.75,-0.600771453840635,-0.599699899966656,0.463157894736842
0.75,-0.6411072815854,-0.593097699233078,0.507894736842105
0.75,-0.528161660233176,-0.5864954984995,0.552631578947368
0.75,-0.601952686817024,-0.579893297765922,0.597368421052632
0.75,-0.582159413170869,-0.574024674891631,0.642105263157895
0.75,-0.575681973408237,-0.568156052017339,0.686842105263158
0.75,-0.62684432222262,-0.562287429143048,0.731578947368421
0.75,-0.589045857547346,-0.557152384128043,0.776315789473684
0.75,-0.570827005335345,-0.552017339113038,0.821052631578947
0.75,-0.597662642795991,-0.546882294098033,0.865789473684211
0.75,-0.586161790498183,-0.541747249083028,0.910526315789474
0.75,-0.494028977929027,-0.537345781927309,0.955263157894737
0.75,-0.601373762674106,-0.532944314771591,1
0.25,-0.993988607780675,-0.987762587529176,0.15
0.25,-0.998026863589897,-0.98702900966989,0.194736842105263
0.25,-1.00942048281012,-0.986295431810604,0.239473684210526
0.25,-1.00141261678821,-0.986295431810604,0.284210526315789
0.25,-0.994283225338758,-0.985561853951317,0.328947368421053
0.25,-1.00284502371116,-0.984828276092031,0.373684210526316
0.25,-0.987693952131574,-0.984094698232744,0.418421052631579
0.25,-0.985292512688836,-0.983361120373458,0.463157894736842
0.25,-1.00012242426247,-0.982627542514172,0.507894736842105
0.25,-0.986725040991073,-0.982627542514172,0.552631578947368
0.25,-0.994525470028642,-0.981893964654885,0.597368421052632
0.25,-0.990423281172588,-0.981160386795599,0.642105263157895
0.25,-0.982461001819164,-0.980426808936312,0.686842105263158
0.25,-0.989624400590818,-0.979693231077026,0.731578947368421
0.25,-1.01236487452661,-0.978959653217739,0.776315789473684
0.25,-0.970318237988456,-0.978959653217739,0.821052631578947
0.25,-0.994392466434845,-0.978226075358453,0.865789473684211
0.25,-0.984446280388626,-0.977492497499166,0.910526315789474
0.25,-0.969172351957819,-0.97675891963988,0.955263157894737
0.25,-0.977905259665686,-0.976025341780594,1
0.5,-0.98838681980031,-0.923207735911971,0.15
0.5,-0.932194332510582,-0.919539846615539,0.194736842105263
0.5,-0.95828856004683,-0.915871957319106,0.239473684210526
0.5,-0.960283939119992,-0.912204068022674,0.284210526315789
0.5,-0.946987977437878,-0.908536178726242,0.328947368421053
0.5,-0.893178496984486,-0.90486828942981,0.373684210526316
0.5,-0.947713387742653,-0.901200400133378,0.418421052631579
0.5,-0.922877416679523,-0.897532510836946,0.463157894736842
0.5,-0.935310839590848,-0.893864621540514,0.507894736842105
0.5,-0.907304791078226,-0.890930310103368,0.552631578947368
0.5,-0.869314194640731,-0.887262420806936,0.597368421052632
0.5,-0.918841480878151,-0.883594531510504,0.642105263157895
0.5,-0.874698092489848,-0.880660220073358,0.686842105263158
0.5,-0.865464387523351,-0.876992330776926,0.731578947368421
0.5,-0.855722840821224,-0.87405801933978,0.776315789473684
0.5,-0.861817958827716,-0.870390130043348,0.821052631578947
0.5,-0.923810788647482,-0.867455818606202,0.865789473684211
0.5,-0.887402695775138,-0.86378792930977,0.910526315789474
0.5,-0.874599176711668,-0.860853617872624,0.955263157894737
0.5,-0.874862050593782,-0.857919306435479,1
0.75,-0.638966498505673,-0.657652550850284,0.15
0.75,-0.598463363856804,-0.64811603867956,0.194736842105263
0.75,-0.650790514772455,-0.639313104368123,0.239473684210526
0.75,-0.61035533976298,-0.630510170056686,0.284210526315789
0.75,-0.566905947090731,-0.622440813604535,0.328947368421053
0.75,-0.615407013852052,-0.614371457152384,0.373684210526316
0.75,-0.660136940963034,-0.60703567855952,0.418421052631579
0.75,-0.638026005453718,-0.599699899966656,0.463157894736842
0.75,-0.629290657121722,-0.593097699233078,0.507894736842105
0.75,-0.608535765211979,-0.5864954984995,0.552631578947368
0.75,-0.661465765736333,-0.579893297765922,0.597368421052632
0.75,-0.5688997745852,-0.574024674891631,0.642105263157895
0.75,-0.588835914263361,-0.568156052017339,0.686842105263158
0.75,-0.58048098705968,-0.562287429143048,0.731578947368421
0.75,-0.591799434793527,-0.557152384128043,0.776315789473684
0.75,-0.592180749151339,-0.552017339113038,0.821052631578947
0.75,-0.560110739108773,-0.546882294098033,0.865789473684211
0.75,-0.575270813289913,-0.541747249083028,0.910526315789474
0.75,-0.564949584231084,-0.537345781927309,0.955263157894737
0.75,-0.440791624356516,-0.532944314771591,1
0.25,-0.994788667824966,-0.987762587529176,0.15
0.25,-1.00089697994068,-0.98702900966989,0.194736842105263
0.25,-1.0026404768693,-0.986295431810604,0.239473684210526
0.25,-1.00391156345605,-0.986295431810604,0.284210526315789
0.25,-0.990490105577301,-0.985561853951317,0.328947368421053
0.25,-0.985261701414915,-0.984828276092031,0.373684210526316
0.25,-0.998763966883055,-0.984094698232744,0.418421052631579
0.25,-1.00312885863304,-0.983361120373458,0.463157894736842
0.25,-0.995304478025932,-0.982627542514172,0.507894736842105
0.25,-0.99605095881267,-0.982627542514172,0.552631578947368
0.25,-0.980356938889967,-0.981893964654885,0.597368421052632
0.25,-0.990958801635081,-0.981160386795599,0.642105263157895
0.25,-0.997738432867778,-0.980426808936312,0.686842105263158
0.25,-1.00103492261154,-0.979693231077026,0.731578947368421
0.25,-0.981198066195566,-0.978959653217739,0.776315789473684
0.25,-0.987978358963355,-0.978959653217739,0.821052631578947
0.25,-0.974710917610804,-0.978226075358453,0.865789473684211
0.25,-0.988387263278025,-0.977492497499166,0.910526315789474
0.25,-0.988810154398797,-0.97675891963988,0.955263157894737
0.25,-0.978344455359221,-0.976025341780594,1
0.5,-0.915321185282648,-0.923207735911971,0.15
0.5,-0.965192262424863,-0.919539846615539,0.194736842105263
0.5,-0.956700753592996,-0.915871957319106,0.239473684210526
0.5,-0.963454266936569,-0.912204068022674,0.284210526315789
0.5,-0.927569656278347,-0.908536178726242,0.328947368421053
0.5,-0.912723666452943,-0.90486828942981,0.373684210526316
0.5,-0.903648915926409,-0.901200400133378,0.418421052631579
0.5,-0.903065220414721,-0.897532510836946,0.463157894736842
0.5,-0.9238318685748,-0.893864621540514,0.507894736842105
0.5,-0.92144300529179,-0.890930310103368,0.552631578947368
0.5,-0.922299733721793,-0.887262420806936,0.597368421052632
0.5,-0.866522491850948,-0.883594531510504,0.642105263157895
0.5,-0.919733473815479,-0.880660220073358,0.686842105263158
0.5,-0.90348489242102,-0.876992330776926,0.731578947368421
0.5,-0.863769312321506,-0.87405801933978,0.776315789473684
0.5,-0.928007904081229,-0.870390130043348,0.821052631578947
0.5,-0.858325445143655,-0.867455818606202,0.865789473684211
0.5,-0.885213846998772,-0.86378792930977,0.910526315789474
0.5,-0.867118335910041,-0.860853617872624,0.955263157894737
0.5,-0.864740623504554,-0.857919306435479,1
0.75,-0.692160115400354,-0.657652550850284,0.15
0.75,-0.593139474952425,-0.64811603867956,0.194736842105263
0.75,-0.569827259472617,-0.639313104368123,0.239473684210526
0.75,-0.668408961287793,-0.630510170056686,0.284210526315789
0.75,-0.635938094371797,-0.622440813604535,0.328947368421053
0.75,-0.617471996442483,-0.614371457152384,0.373684210526316
0.75,-0.627423097700812,-0.60703567855952,0.418421052631579
0.75,-0.56631483293709,-0.599699899966656,0.463157894736842
0.75,-0.629938265309033,-0.593097699233078,0.507894736842105
0.75,-0.630372317728563,-0.5864954984995,0.552631578947368
0.75,-0.568397877687084,-0.579893297765922,0.597368421052632
0.75,-0.577036067993512,-0.574024674891631,0.642105263157895
0.75,-0.599161557001388,-0.568156052017339,0.686842105263158
0.75,-0.551580703509132,-0.562287429143048,0.731578947368421
0.75,-0.631884348961708,-0.557152384128043,0.776315789473684
0.75,-0.549738644343488,-0.552017339113038,0.821052631578947
0.75,-0.546481818723481,-0.546882294098033,0.865789473684211
0.75,-0.538342426155285,-0.541747249083028,0.910526315789474
0.75,-0.581630706420413,-0.537345781927309,0.955263157894737
0.75,-0.549385432761378,-0.532944314771591,1
0.25,-0.987154045730517,-0.987762587529176,0.15
0.25,-1.0083359943855,-0.98702900966989,0.194736842105263
0.25,-0.998696525328352,-0.986295431810604,0.239473684210526
0.25,-0.999287721283925,-0.986295431810604,0.284210526315789
0.25,-0.99320884391477,-0.985561853951317,0.328947368421053
0.25,-0.989093657307123,-0.984828276092031,0.373684210526316
0.25,-0.979720004398787,-0.984094698232744,0.418421052631579
0.25,-0.990403891608923,-0.983361120373458,0.463157894736842
0.25,-0.982084140016355,-0.982627542514172,0.507894736842105
0.25,-1.01694821093066,-0.982627542514172,0.552631578947368
0.25,-1.03065889695207,-0.981893964654885,0.597368421052632
0.25,-1.01067578536038,-0.981160386795599,0.642105263157895
0.25,-0.989884319095628,-0.980426808936312,0.686842105263158
0.25,-0.982941066567017,-0.979693231077026,0.731578947368421
0.25,-0.980203611990512,-0.978959653217739,0.776315789473684
0.25,-0.976699303362202,-0.978959653217739,0.821052631578947
0.25,-0.995009327139418,-0.978226075358453,0.865789473684211
0.25,-0.978292734440868,-0.977492497499166,0.910526315789474
0.25,-0.990128592777053,-0.97675891963988,0.955263157894737
0.25,-0.969682411805308,-0.976025341780594,1
0.5,-0.942500243425961,-0.923207735911971,0.15
0.5,-0.91579604977098,-0.919539846615539,0.194736842105263
0.5,-0.934341879467683,-0.915871957319106,0.239473684210526
0.5,-0.962623066902028,-0.912204068022674,0.284210526315789
0.5,-0.966311539575429,-0.908536178726242,0.328947368421053
0.5,-0.891836934222191,-0.90486828942981,0.373684210526316
0.5,-0.914751205183345,-0.901200400133378,0.418421052631579
0.5,-0.862620524681929,-0.897532510836946,0.463157894736842
0.5,-0.900082959416401,-0.893864621540514,0.507894736842105
0.5,-0.876837355239467,-0.890930310103368,0.552631578947368
0.5,-0.885420318072429,-0.887262420806936,0.597368421052632
0.5,-0.922581856917292,-0.883594531510504,0.642105263157895
0.5,-0.885242182892355,-0.880660220073358,0.686842105263158
0.5,-0.914583292013789,-0.876992330776926,0.731578947368421
0.5,-0.905592962147322,-0.87405801933978,0.776315789473684
0.5,-0.887216287903353,-0.870390130043348,0.821052631578947
0.5,-0.89507300494838,-0.867455818606202,0.865789473684211
0.5,-0.865017860910587,-0.86378792930977,0.910526315789474
0.5,-0.869988119642034,-0.860853617872624,0.955263157894737
0.5,-0.867224899813644,-0.857919306435479,1
0.75,-0.6021223196451,-0.657652550850284,0.15
0.75,-0.665728119169615,-0.64811603867956,0.194736842105263
0.75,-0.700123057272515,-0.639313104368123,0.239473684210526
0.75,-0.663256488427811,-0.630510170056686,0.284210526315789
0.75,-0.653086210342584,-0.622440813604535,0.328947368421053
0.75,-0.522780923771044,-0.614371457152384,0.373684210526316
0.75,-0.5934363285473,-0.60703567855952,0.418421052631579
0.75,-0.635388341472765,-0.599699899966656,0.463157894736842
0.75,-0.654077801469992,-0.593097699233078,0.507894736842105
0.75,-0.544793433490324,-0.5864954984995,0.552631578947368
0.75,-0.61256676634467,-0.579893297765922,0.597368421052632
0.75,-0.570616828693655,-0.574024674891631,0.642105263157895
0.75,-0.672950886129668,-0.568156052017339,0.686842105263158
0.75,-0.579806670148237,-0.562287429143048,0.731578947368421
0.75,-0.584756863533122,-0.557152384128043,0.776315789473684
0.75,-0.476034912904609,-0.552017339113038,0.821052631578947
0.75,-0.56589539488245,-0.546882294098033,0.865789473684211
0.75,-0.576802591569208,-0.541747249083028,0.910526315789474
0.75,-0.578776381676437,-0.537345781927309,0.955263157894737
0.75,-0.534838989009102,-0.532944314771591,1
0.25,-1.06338029093779,-0.987762587529176,0.15
0.25,-1.00291721500778,-0.98702900966989,0.194736842105263
0.25,-1.01042382646191,-0.986295431810604,0.239473684210526
0.25,-0.995628873717956,-0.986295431810604,0.284210526315789
0.25,-1.00650780187014,-0.985561853951317,0.328947368421053
0.25,-1.00522989053781,-0.984828276092031,0.373684210526316
0.25,-0.984993593921002,-0.984094698232744,0.418421052631579
0.25,-1.00170480855368,-0.983361120373458,0.463157894736842
0.25,-1.00976180538699,-0.982627542514172,0.507894736842105
0.25,-0.978594820620423,-0.982627542514172,0.552631578947368
0.25,-0.971606478783742,-0.981893964654885,0.597368421052632
0.25,-1.00397851085573,-0.981160386795599,0.642105263157895
0.25,-0.986074464252942,-0.980426808936312,0.686842105263158
0.25,-0.984209924724932,-0.979693231077026,0.731578947368421
0.25,-1.00585616784492,-0.978959653217739,0.776315789473684
0.25,-0.997593523238123,-0.978959653217739,0.821052631578947
0.25,-1.00315748551284,-0.978226075358453,0.865789473684211
0.25,-0.995130599030423,-0.977492497499166,0.910526315789474
0.25,-0.973531612767565,-0.97675891963988,0.955263157894737
0.25,-0.998785112822523,-0.976025341780594,1
0.5,-0.981962029460643,-0.923207735911971,0.15
0.5,-0.893190820830872,-0.919539846615539,0.194736842105263
0.5,-0.937958128945837,-0.915871957319106,0.239473684210526
0.5,-0.9291636903059,-0.912204068022674,0.284210526315789
0.5,-0.962785688039026,-0.908536178726242,0.328947368421053
0.5,-0.913403275726084,-0.90486828942981,0.373684210526316
0.5,-0.906209230306708,-0.901200400133378,0.418421052631579
0.5,-0.892940157325641,-0.897532510836946,0.463157894736842
0.5,-0.874903552470069,-0.893864621540514,0.507894736842105
0.5,-0.873224179050269,-0.890930310103368,0.552631578947368
0.5,-0.856042335999726,-0.887262420806936,0.597368421052632
0.5,-0.962968906407059,-0.883594531510504,0.642105263157895
0.5,-0.867420416399732,-0.880660220073358,0.686842105263158
0.5,-0.92487537797224,-0.876992330776926,0.731578947368421
0.5,-0.896132966129619,-0.87405801933978,0.776315789473684
0.5,-0.913754529365345,-0.870390130043348,0.821052631578947
0.5,-0.860996424070798,-0.867455818606202,0.865789473684211
0.5,-0.8449224810004,-0.86378792930977,0.910526315789474
0.5,-0.891622204520695,-0.860853617872624,0.955263157894737
0.5,-0.883178461200608,-0.857919306435479,1
0.75,-0.694120446335912,-0.657652550850284,0.15
0.75,-0.68576396207339,-0.64811603867956,0.194736842105263
0.75,-0.697496038750455,-0.639313104368123,0.239473684210526
0.75,-0.706767534454591,-0.630510170056686,0.284210526315789
0.75,-0.613658897025104,-0.622440813604535,0.328947368421053
0.75,-0.607085066398252,-0.614371457152384,0.373684210526316
0.75,-0.598240837925887,-0.60703567855952,0.418421052631579
0.75,-0.616291451026356,-0.599699899966656,0.463157894736842
0.75,-0.627425109500767,-0.593097699233078,0.507894736842105
0.75,-0.609824645043493,-0.5864954984995,0.552631578947368
0.75,-0.605883963046065,-0.579893297765922,0.597368421052632
0.75,-0.580688177555934,-0.574024674891631,0.642105263157895
0.75,-0.529723399921261,-0.568156052017339,0.686842105263158
0.75,-0.619526666480746,-0.562287429143048,0.731578947368421
0.75,-0.552412500054484,-0.557152384128043,0.776315789473684
0.75,-0.580329807218216,-0.552017339113038,0.821052631578947
0.75,-0.621067026826678,-0.546882294098033,0.865789473684211
0.75,-0.48588243537402,-0.541747249083028,0.910526315789474
0.75,-0.551757723446639,-0.537345781927309,0.955263157894737
0.75,-0.57768626054155,-0.532944314771591,1
0.25,-0.99353382943613,-0.987762587529176,0.15
0.25,-1.01846571683652,-0.98702900966989,0.194736842105263
0.25,-0.996688729386125,-0.986295431810604,0.239473684210526
0.25,-0.99428556983764,-0.986295431810604,0.284210526315789
0.25,-1.05742172674576,-0.985561853951317,0.328947368421053
0.25,-0.9869098049334,-0.984828276092031,0.373684210526316
0.25,-1.00527480067614,-0.984094698232744,0.418421052631579
0.25,-0.99142358639484,-0.983361120373458,0.463157894736842
0.25,-0.992936336199503,-0.982627542514172,0.507894736842105
0.25,-0.995575342573759,-0.982627542514172,0.552631578947368
0.25,-0.972153067108626,-0.981893964654885,0.597368421052632
0.25,-1.01238720549493,-0.981160386795599,0.642105263157895
0.25,-0.975099079394337,-0.980426808936312,0.686842105263158
0.25,-0.988509820609363,-0.979693231077026,0.731578947368421
0.25,-0.98066907143166,-0.978959653217739,0.776315789473684
0.25,-0.980812670117098,-0.978959653217739,0.821052631578947
0.25,-0.979494362891765,-0.978226075358453,0.865789473684211
0.25,-1.00545187460505,-0.977492497499166,0.910526315789474
0.25,-0.996543076372002,-0.97675891963988,0.955263157894737
0.25,-0.985004788092218,-0.976025341780594,1
0.5,-0.998880429385971,-0.923207735911971,0.15
0.5,-0.98646685399153,-0.919539846615539,0.194736842105263
0.5,-0.978151055625416,-0.915871957319106,0.239473684210526
0.5,-0.944999956239385,-0.912204068022674,0.284210526315789
0.5,-0.945455400754689,-0.908536178726242,0.328947368421053
0.5,-0.908825378851799,-0.90486828942981,0.373684210526316
0.5,-0.911537126012328,-0.901200400133378,0.418421052631579
0.5,-0.944979936022584,-0.897532510836946,0.463157894736842
0.5,-0.86756931003752,-0.893864621540514,0.507894736842105
0.5,-0.88786793581693,-0.890930310103368,0.552631578947368
0.5,-0.844348018932213,-0.887262420806936,0.597368421052632
0.5,-0.915705871987613,-0.883594531510504,0.642105263157895
0.5,-0.900564842728582,-0.880660220073358,0.686842105263158
0.5,-0.933610860869026,-0.876992330776926,0.731578947368421
0.5,-0.902695622688605,-0.87405801933978,0.776315789473684
0.5,-0.812049339953432,-0.870390130043348,0.821052631578947
0.5,-0.863087101483661,-0.867455818606202,0.865789473684211
0.5,-0.893936740281956,-0.86378792930977,0.910526315789474
0.5,-0.857548950084847,-0.860853617872624,0.955263157894737
0.5,-0.884701083930738,-0.857919306435479,1
0.75,-0.73163128553652,-0.657652550850284,0.15
0.75,-0.666430543944372,-0.64811603867956,0.194736842105263
0.75,-0.674900510908977,-0.639313104368123,0.239473684210526
0.75,-0.689845584260502,-0.630510170056686,0.284210526315789
0.75,-0.630789638035807,-0.622440813604535,0.328947368421053
0.75,-0.656030340958857,-0.614371457152384,0.373684210526316
0.75,-0.595779171790516,-0.60703567855952,0.418421052631579
0.75,-0.65457099632687,-0.599699899966656,0.463157894736842
0.75,-0.57058169595062,-0.593097699233078,0.507894736842105
0.75,-0.5764811840489,-0.5864954984995,0.552631578947368
0.75,-0.605770537055625,-0.579893297765922,0.597368421052632
0.75,-0.613628543291963,-0.574024674891631,0.642105263157895
0.75,-0.65328973766772,-0.568156052017339,0.686842105263158
0.75,-0.546061240662105,-0.562287429143048,0.731578947368421
0.75,-0.579140175861452,-0.557152384128043,0.776315789473684
0.75,-0.57400415682725,-0.552017339113038,0.821052631578947
0.75,-0.572873710126791,-0.546882294098033,0.865789473684211
0.75,-0.581447725071135,-0.541747249083028,0.910526315789474
0.75,-0.579139364999245,-0.537345781927309,0.955263157894737
0.75,-0.559411013776837,-0.532944314771591,1
0.25,-1.00831322977933,-0.987762587529176,0.15
0.25,-1.02117782716348,-0.98702900966989,0.194736842105263
0.25,-0.99275226347278,-0.986295431810604,0.239473684210526
0.25,-1.00203262966154,-0.986295431810604,0.284210526315789
0.25,-0.968500304914979,-0.985561853951317,0.328947368421053
0.25,-0.999223762423485,-0.984828276092031,0.373684210526316
0.25,-0.998339546717952,-0.984094698232744,0.418421052631579
0.25,-0.992324919060738,-0.983361120373458,0.463157894736842
0.25,-1.00184042861995,-0.982627542514172,0.507894736842105
0.25,-0.999133327534046,-0.982627542514172,0.552631578947368
0.25,-0.978579328628611,-0.981893964654885,0.597368421052632
0.25,-1.00439488375027,-0.981160386795599,0.642105263157895
0.25,-0.998033495265627,-0.980426808936312,0.686842105263158
0.25,-1.00393525445884,-0.979693231077026,0.731578947368421
0.25,-0.995519067034088,-0.978959653217739,0.776315789473684
0.25,-0.984758305500179,-0.978959653217739,0.821052631578947
0.25,-0.990374367651417,-0.978226075358453,0.865789473684211
0.25,-0.983151916833862,-0.977492497499166,0.910526315789474
0.25,-0.984957507225332,-0.97675891963988,0.955263157894737
0.25,-0.979153459920301,-0.976025341780594,1
0.5,-0.925740206365429,-0.923207735911971,0.15
0.5,-0.899449090546404,-0.919539846615539,0.194736842105263
0.5,-0.958236878401377,-0.915871957319106,0.239473684210526
0.5,-0.955576213086241,-0.912204068022674,0.284210526315789
0.5,-0.958144612259571,-0.908536178726242,0.328947368421053
0.5,-0.937448591409094,-0.90486828942981,0.373684210526316
0.5,-0.890515567713606,-0.901200400133378,0.418421052631579
0.5,-0.925080821600661,-0.897532510836946,0.463157894736842
0.5,-0.948444469420794,-0.893864621540514,0.507894736842105
0.5,-0.915769449660557,-0.890930310103368,0.552631578947368
0.5,-0.927844967953453,-0.887262420806936,0.597368421052632
0.5,-0.925479678402433,-0.883594531510504,0.642105263157895
0.5,-0.906885825995184,-0.880660220073358,0.686842105263158
0.5,-0.91214392285481,-0.876992330776926,0.731578947368421
0.5,-0.925491671490615,-0.87405801933978,0.776315789473684
0.5,-0.867898122391546,-0.870390130043348,0.821052631578947
0.5,-0.886810911902412,-0.867455818606202,0.865789473684211
0.5,-0.864974333446832,-0.86378792930977,0.910526315789474
0.5,-0.875986122687256,-0.860853617872624,0.955263157894737
0.5,-0.862647252376137,-0.857919306435479,1
0.75,-0.628247948188425,-0.657652550850284,0.15
0.75,-0.713547059180925,-0.64811603867956,0.194736842105263
0.75,-0.655038850024294,-0.639313104368123,0.239473684210526
0.75,-0.585972353605337,-0.630510170056686,0.284210526315789
0.75,-0.63173701698686,-0.622440813604535,0.328947368421053
0.75,-0.608523116445509,-0.614371457152384,0.373684210526316
0.75,-0.571589280794016,-0.60703567855952,0.418421052631579
0.75,-0.611723354538549,-0.599699899966656,0.463157894736842
0.75,-0.653396363567748,-0.593097699233078,0.507894736842105
0.75,-0.630400474443882,-0.5864954984995,0.552631578947368
0.75,-0.61110713725468,-0.579893297765922,0.597368421052632
0.75,-0.620285010919444,-0.574024674891631,0.642105263157895
0.75,-0.634975236622224,-0.568156052017339,0.686842105263158
0.75,-0.549250365712596,-0.562287429143048,0.731578947368421
0.75,-0.558580246492845,-0.557152384128043,0.776315789473684
0.75,-0.594136823538692,-0.552017339113038,0.821052631578947
0.75,-0.643934819895947,-0.546882294098033,0.865789473684211
0.75,-0.544198458312466,-0.541747249083028,0.910526315789474
0.75,-0.557424704899587,-0.537345781927309,0.955263157894737
0.75,-0.556839544469616,-0.532944314771591,1
0.25,-1.04437475992022,-0.987762587529176,0.15
0.25,-1.07256106803103,-0.98702900966989,0.194736842105263
0.25,-1.01051104088206,-0.986295431810604,0.239473684210526
0.25,-1.0136047602217,-0.986295431810604,0.284210526315789
0.25,-0.986602834912506,-0.985561853951317,0.328947368421053
0.25,-0.998773993817924,-0.984828276092031,0.373684210526316
0.25,-1.02133068982095,-0.984094698232744,0.418421052631579
0.25,-0.984924124784139,-0.983361120373458,0.463157894736842
0.25,-0.999364388544656,-0.982627542514172,0.507894736842105
0.25,-1.01402732548598,-0.982627542514172,0.552631578947368
0.25,-0.975852173297725,-0.981893964654885,0.597368421052632
0.25,-1.01897908332717,-0.981160386795599,0.642105263157895
0.25,-0.996899077056802,-0.980426808936312,0.686842105263158
0.25,-0.994512273929734,-0.979693231077026,0.731578947368421
0.25,-1.0288914606775,-0.978959653217739,0.776315789473684
0.25,-0.994472128573751,-0.978959653217739,0.821052631578947
0.25,-0.958014555511464,-0.978226075358453,0.865789473684211
0.25,-1.04100167253559,-0.977492497499166,0.910526315789474
0.25,-1.01558347749114,-0.97675891963988,0.955263157894737
0.25,-0.99826029156784,-0.976025341780594,1
0.5,-0.952451827125497,-0.923207735911971,0.15
0.5,-0.915888175796603,-0.919539846615539,0.194736842105263
0.5,-0.908291040956399,-0.915871957319106,0.239473684210526
0.5,-0.950694153511188,-0.912204068022674,0.284210526315789
0.5,-0.881587365755383,-0.908536178726242,0.328947368421053
0.5,-0.928511026622672,-0.90486828942981,0.373684210526316
0.5,-0.907849802727575,-0.901200400133378,0.418421052631579
0.5,-0.8965584663096,-0.897532510836946,0.463157894736842
0.5,-0.917395685514029,-0.893864621540514,0.507894736842105
0.5,-0.842361038127341,-0.890930310103368,0.552631578947368
0.5,-0.893477796711517,-0.887262420806936,0.597368421052632
0.5,-0.912114291156379,-0.883594531510504,0.642105263157895
0.5,-0.906534283383562,-0.880660220073358,0.686842105263158
0.5,-0.914259429298663,-0.876992330776926,0.731578947368421
0.5,-0.88360602459017,-0.87405801933978,0.776315789473684
0.5,-0.887378829720497,-0.870390130043348,0.821052631578947
0.5,-0.844334869326411,-0.867455818606202,0.865789473684211
0.5,-0.88039929747949,-0.86378792930977,0.910526315789474
0.5,-0.842508575090686,-0.860853617872624,0.955263157894737
0.5,-0.867170475548759,-0.857919306435479,1
0.75,-0.674692139327418,-0.657652550850284,0.15
0.75,-0.717898476494989,-0.64811603867956,0.194736842105263
0.75,-0.620817121739299,-0.639313104368123,0.239473684210526
0.75,-0.594322341892154,-0.630510170056686,0.284210526315789
0.75,-0.586510459170816,-0.622440813604535,0.328947368421053
0.75,-0.654644447083902,-0.614371457152384,0.373684210526316
0.75,-0.670365428287848,-0.60703567855952,0.418421052631579
0.75,-0.607630051599365,-0.599699899966656,0.463157894736842
0.75,-0.563217796576493,-0.593097699233078,0.507894736842105
0.75,-0.529664997441217,-0.5864954984995,0.552631578947368
0.75,-0.537013385196214,-0.579893297765922,0.597368421052632
0.75,-0.554300821623099,-0.574024674891631,0.642105263157895
0.75,-0.669038257157261,-0.568156052017339,0.686842105263158
0.75,-0.555214484754707,-0.562287429143048,0.731578947368421
0.75,-0.55013816619257,-0.557152384128043,0.776315789473684
0.75,-0.498687734275293,-0.552017339113038,0.821052631578947
0.75,-0.527413092004478,-0.546882294098033,0.865789473684211
0.75,-0.55360184144639,-0.541747249083028,0.910526315789474
0.75,-0.514571839669611,-0.537345781927309,0.955263157894737
0.75,-0.57074484388129,-0.532944314771591,1
0.25,-1.00793122954474,-0.987762587529176,0.15
0.25,-0.997525710159573,-0.98702900966989,0.194736842105263
0.25,-0.986614494374993,-0.986295431810604,0.239473684210526
0.25,-1.00193574093642,-0.986295431810604,0.284210526315789
0.25,-1.00311814019099,-0.985561853951317,0.328947368421053
0.25,-1.02290913750076,-0.984828276092031,0.373684210526316
0.25,-0.972489609752133,-0.984094698232744,0.418421052631579
0.25,-0.967866820025025,-0.983361120373458,0.463157894736842
0.25,-0.988990770974735,-0.982627542514172,0.507894736842105
0.25,-0.981977749664142,-0.982627542514172,0.552631578947368
0.25,-0.974769346571504,-0.981893964654885,0.597368421052632
0.25,-0.97654395118221,-0.981160386795599,0.642105263157895
0.25,-1.02337957688736,-0.980426808936312,0.686842105263158
0.25,-0.982414851741987,-0.979693231077026,0.731578947368421
0.25,-1.00076625554821,-0.978959653217739,0.776315789473684
0.25,-0.984523961816404,-0.978959653217739,0.821052631578947
0.25,-0.993808545312111,-0.978226075358453,0.865789473684211
0.25,-0.992312126385858,-0.977492497499166,0.910526315789474
0.25,-0.986272459301656,-0.97675891963988,0.955263157894737
0.25,-0.982587518904612,-0.976025341780594,1
0.5,-0.988064577567989,-0.923207735911971,0.15
0.5,-0.943527392613113,-0.919539846615539,0.194736842105263
0.5,-0.932768453157374,-0.915871957319106,0.239473684210526
0.5,-0.921153957796491,-0.912204068022674,0.284210526315789
0.5,-0.893201604987691,-0.908536178726242,0.328947368421053
0.5,-0.958680999937771,-0.90486828942981,0.373684210526316
0.5,-0.947422531258194,-0.901200400133378,0.418421052631579
0.5,-0.923762115836367,-0.897532510836946,0.463157894736842
0.5,-0.887979109569546,-0.893864621540514,0.507894736842105
0.5,-0.892625468099155,-0.890930310103368,0.552631578947368
0.5,-0.909992597672105,-0.887262420806936,0.597368421052632
0.5,-0.879787410411,-0.883594531510504,0.642105263157895
0.5,-0.856837576779574,-0.880660220073358,0.686842105263158
0.5,-0.912381992625668,-0.876992330776926,0.731578947368421
0.5,-0.882259044410177,-0.87405801933978,0.776315789473684
0.5,-0.884816450277491,-0.870390130043348,0.821052631578947
0.5,-0.881387857568206,-0.867455818606202,0.865789473684211
0.5,-0.892995785351768,-0.86378792930977,0.910526315789474
0.5,-0.835595981696611,-0.860853617872624,0.955263157894737
0.5,-0.854203167297436,-0.857919306435479,1
0.75,-0.674720257767333,-0.657652550850284,0.15
0.75,-0.669980714686736,-0.64811603867956,0.194736842105263
0.75,-0.64716276526235,-0.639313104368123,0.239473684210526
0.75,-0.673559380549236,-0.630510170056686,0.284210526315789
0.75,-0.596570549816659,-0.622440813604535,0.328947368421053
0.75,-0.711352468575386,-0.614371457152384,0.373684210526316
0.75,-0.602544962976985,-0.60703567855952,0.418421052631579
0.75,-0.591075060239422,-0.599699899966656,0.463157894736842
0.75,-0.573200612940381,-0.593097699233078,0.507894736842105
0.75,-0.59963598616217,-0.5864954984995,0.552631578947368
0.75,-0.525674071951614,-0.579893297765922,0.597368421052632
0.75,-0.570009154048637,-0.574024674891631,0.642105263157895
0.75,-0.506322649060266,-0.568156052017339,0.686842105263158
0.75,-0.569795282265079,-0.562287429143048,0.731578947368421
0.75,-0.576153385935563,-0.557152384128043,0.776315789473684
0.75,-0.541770453881969,-0.552017339113038,0.821052631578947
0.75,-0.516629429426311,-0.546882294098033,0.865789473684211
0.75,-0.586500332390205,-0.541747249083028,0.910526315789474
0.75,-0.519615792511705,-0.537345781927309,0.955263157894737
0.75,-0.581065777990032,-0.532944314771591,1
