\relax 
\newlabel{FirstPage}{{}{1}{}{}{}}
\@writefile{toc}{\contentsline {title}{The effect of population abundances on the stability of large random ecosystems}{1}{}}
\@writefile{toc}{\contentsline {abstract}{Abstract}{1}{}}
\citation{May1988,May1988}
\citation{Arditi2012}
\citation{May1972}
\citation{May1972}
\citation{Allesina2012,ReviewRMT}
\citation{Allesina2015a}
\citation{Grilli2016}
\citation{Bell2001a}
\citation{Fisher1943a}
\citation{Preston1948}
\citation{Volkov2007}
\citation{Caswell1976,Hubbell2001a,Volkov2003,Azaele2016}
\citation{MacArthur1957a,Vandermeer1966}
\@writefile{toc}{\contentsline {section}{\numberline {I}Introduction}{2}{}}
\newlabel{eq:generic}{{1}{2}{}{}{}}
\citation{ReviewRMT,amnatjames,Jacquet2016}
\citation{Roberts1974}
\citation{Rohr2014,Stone2016,Grilli2017}
\citation{Rohr2014,Grilli2017}
\citation{Rohr2014,Grilli2017}
\newlabel{eq:LV}{{2}{3}{}{}{}}
\citation{nguyen2012elliptic}
\citation{ORourke2014}
\citation{nguyen2012elliptic,Allesina2012,ORourke2014}
\citation{ORourke2014}
\citation{ORourke2014}
\@writefile{toc}{\contentsline {section}{\numberline {II}Constructing the community matrix with arbitrary population abundance}{4}{}}
\@writefile{toc}{\contentsline {section}{\numberline {III}Disentangling the effect of the mean interaction strength}{4}{}}
\newlabel{sec:disentangle}{{III}{4}{}{}{}}
\@writefile{lof}{\contentsline {figure}{\numberline {1}{\ignorespaces The top row shows the vector of abundances $\boldsymbol  {x}^\ast $, the interaction matrix $\boldsymbol  {A}$ and the community matrix $\boldsymbol  {M} = \boldsymbol  {X} \boldsymbol  {A}$ (where $\boldsymbol  {X}$ is a diagonal matrix with diagonal entries $\boldsymbol  {x}^\ast $), with colors from red (negative) to green (positive). The bottom row shows the eigenvalues of $\boldsymbol  {A}$ and $\boldsymbol  {M}$, for $S = 500$. The diagonal entries of $\boldsymbol  {X}$ are sampled from a uniform distribution on $[0,1]$, and matrix $\boldsymbol  {A}$ is built sampling independently each pair $(A_{ij}, A_{ji})$ from a normal bivariate distribution with identical marginals defined by $\mu = 0$, $\sigma = 1 / \sqrt  {S}$, and correlation $ \rho = -0.5$. The diagonal elements of $\boldsymbol  {A}$ are fixed at -1. The main goal of this work is to characterize the spectrum of $\boldsymbol  {M}$ given the properties of $\boldsymbol  {A}$ and $\boldsymbol  {X}$.}}{5}{}}
\newlabel{fig:populationaffect}{{1}{5}{}{}{}}
\@writefile{lof}{\contentsline {figure}{\numberline {2}{\ignorespaces The top row shows the three matrices $\bf  {M}$, $\bf  {Q}$ and $\bf  {J}$. The community matrix $\boldsymbol  {M} = \boldsymbol  {X} \boldsymbol  {A}$, is obtained from the interaction matrix $\boldsymbol  {A}$ that, without loss of generality, can be written as $\boldsymbol  {A} = (\mu _d - \mu ) \boldsymbol  {I} + \mu \boldsymbol  {1} + \boldsymbol  {B}$, where $\boldsymbol  {1}$ is a matrix of ones and $\boldsymbol  {B}$ is a random matrix with diagonal elements fixed at zero whose coefficients have mean zero and variance $\sigma ^2$. We define $\boldsymbol  {Q} = \boldsymbol  {X} ( (\mu _d - \mu )\boldsymbol  {I} + \mu \boldsymbol  {1}) $ and $\boldsymbol  {J} = \boldsymbol  {X} (\mu _d\boldsymbol  {I} + \boldsymbol  {B})$. Equivalently, $\boldsymbol  {Q}$ is the matrix with the same parameters as $\boldsymbol  {M}$ except with $\sigma = 0$, and $\boldsymbol  {J}$ is obtained from the same parameters as $\boldsymbol  {M}$ except with $\mu = 0$ for the off-diagonal terms. Remarkably, the eigenvalues of $\boldsymbol  {M}$, $\boldsymbol  {J}$ and $\boldsymbol  {Q}$ are simply related: the bulk of eigenvalues of $\boldsymbol  {J}$ and that of $\boldsymbol  {M}$ are the same, while the outlier of $\boldsymbol  {M}$ is the same as that of $\boldsymbol  {Q}$. This decomposition allows us to obtain an analytical prediction for the outlier, and in the Supplementary Information\ we find the spectrum of $\boldsymbol  {Q}$ analytically. In the figure, we set $S = 500$. The diagonal entries of $\boldsymbol  {X}$ are sampled from a uniform distribution on $[0,1]$. $\boldsymbol  {A}$ is sampled from a normal bivariate distribution with identical marginals $\mu = 5 / S$, $\sigma = 5 / \sqrt  {S}$ and correlation $\rho = -0.5$. }}{6}{}}
\newlabel{fig:observation}{{2}{6}{}{}{}}
\newlabel{eq:outlier}{{10}{6}{}{}{}}
\citation{Rogers2008,Rogers2009,Grilli2016}
\@writefile{lof}{\contentsline {figure}{\numberline {3}{\ignorespaces The three panels show that our analytical prediction (equation\nobreakspace  {}3{}{}{}\hbox {}) correctly matches the outlier of the spectrum, for different values of $\rho $ and population abundance distributions. The matrix $\boldsymbol  {A}$ is built independently sampling the coefficients from a normal bivariate distribution with identical marginals defined by $\mu $, $\sigma $, and $\rho $. Here, we set $S = 1000$ and $\sigma = 1 / \sqrt  {S}$, and vary $\mu $ between $-10$ and $10$ to test our prediction. We draw $\boldsymbol  {X}$ from three different distributions with positive support: uniform (on [0,1]), log-normal (with mean log-mean $0.5$ and log-standard deviation $0.5$) and half-normal (shifted rightwards to have support $(1, \infty )$, and with parameter $ \theta = 1$). We can observe deviations from our prediction when $\mu $ is small, especially when $\boldsymbol  {X}$ is drawn from a log-normal distribution. This is because the eigenvalue corresponding to equation\nobreakspace  {}10{}{}{}\hbox {} is now contained in the bulk.}}{7}{}}
\newlabel{fig:outeigen}{{3}{7}{}{}{}}
\@writefile{toc}{\contentsline {section}{\numberline {IV}Analytical solution in the case $\rho = 0$}{7}{}}
\newlabel{eq:uncpred}{{11}{7}{}{}{}}
\@writefile{lof}{\contentsline {figure}{\numberline {4}{\ignorespaces The top row shows that the analytical predictions for the support of the eigenvalue distribution obtained in equation\nobreakspace  {}12{}{}{}\hbox {} (solid blue line) correctly predict the support of the spectrum of $\boldsymbol  {M} = \boldsymbol  {X} \boldsymbol  {A}$. In all the three plots, $\boldsymbol  {A}$ is built using a bivariate normal distribution with identical marginals $\mu = 0$, $\sigma = 1 / \sqrt  {S}$ and correlation $ \rho = 0$. The diagonal entries of $\boldsymbol  {A}$ are fixed at $-2$. We considered three different abundance distributions: uniform ($\boldsymbol  {X}$ is sampled from a uniform distribution on [0.25, 1.75]) lognormal ($\boldsymbol  {X}$ is sampled from a log-normal distribution with log-mean $0.5$ and log-standard deviation $0.5$) and half-normal ($\bf  {X}$ is sampled from a half-normal, shifted rightwards to have support $(1, \infty )$, and with parameter $ \theta = 1$). The bottom row shows the value of the rightmost eigenvalue of $\bf  {M}$ against the analytical prediction for the leading eigenvalue of matrices with the same abundance distributions used above, but varying their variances $\sigma _X^2$. Different colors correspond to different values of $\sigma $. Each point is an average over $20$ simulations.}}{8}{}}
\newlabel{fig:uncorrelatedpredictions}{{4}{8}{}{}{}}
\newlabel{eq:uncpred_diag}{{12}{8}{}{}{}}
\citation{Kaszkurewicz2000}
\citation{Redheffer1985}
\citation{Kaszkurewicz2000}
\citation{Wigner1958,Tang2014}
\citation{Tang2014}
\citation{Tang2014,Grilli2017}
\@writefile{toc}{\contentsline {section}{\numberline {V}The stability of large community matrices does not depend on population abundance}{9}{}}
\newlabel{sec:dstab}{{V}{9}{}{}{}}
\newlabel{eq:lowerdiag}{{15}{9}{}{}{}}
\newlabel{eq:stab}{{16}{9}{}{}{}}
\citation{Grilli2017}
\@writefile{lof}{\contentsline {figure}{\numberline {5}{\ignorespaces  We computed the probability that a matrix $\boldsymbol  {M} = \boldsymbol  {X} \boldsymbol  {A}$ is unstable (i.e., that the leading eigenvalue has positive real part), given that $\boldsymbol  {A}$ is a stable random matrix with rightmost eigenvalue equal to $\lambda _{max} = -d$. This probability decreases exponentially with $S$ for different values of $\rho $ ($-0.5$ in the left panel, $0$ in the center and $0.5$ in the right) and $\lambda _{max}$ (different colors). For a given number of species $S$, we construct the random matrix $\boldsymbol  {A}$ sampling its entries from a bivariate normal with identical marginals $\mu = 0$, $\sigma = 1 / \sqrt  {S}$ and given $\rho $. The diagonal elements of $\boldsymbol  {A}$ are all equal and their value is determined in order to have dominant eigenvalue equal to $\lambda _{max}$. The diagonal entries of $\boldsymbol  {X}$ were sampled from a uniform distribution on $[0,1]$. For each value of the parameters $\rho $, $\lambda _{max}$ and $S$, we constructed $XXX$ matrices $\boldsymbol  {A}$ and $\boldsymbol  {X}$ and computed the fraction of matrices $\boldsymbol  {M} = \boldsymbol  {X}\boldsymbol  {A}$ with positive dominant eigenvalue. }}{10}{}}
\newlabel{fig:unweightedprobabilities}{{5}{10}{}{}{}}
\newlabel{eq:diagstabsuff}{{17}{10}{}{}{}}
\@writefile{toc}{\contentsline {section}{\numberline {VI}Fixed points are almost surely stable in large random Lotka-Volterra equations.}{10}{}}
\newlabel{eq:fixedpoint}{{18}{10}{}{}{}}
\citation{Grilli2017}
\citation{Grilli2017}
\newlabel{eq:probx}{{19}{11}{}{}{}}
\@writefile{toc}{\contentsline {section}{\numberline {VII}Discussion}{11}{}}
\citation{Rohr2014,Grilli2017}
\citation{Smale1976,Takeuchi1996}
\citation{Hofbauer1998}
\citation{Grilli2017}
\@writefile{lof}{\contentsline {figure}{\numberline {6}{\ignorespaces  These panels plot the same quantity as of fig\nobreakspace  {}5{}{}{}\hbox {}. Instead of sampling $\boldsymbol  {X}$ from a uniform distribution, we used the distribution of eq.\nobreakspace  {}19{}{}{}\hbox {}, which guarantee an unbiased sampling of the intrinsic growth rates of a Lotka-Volterra systems. This sampling method is in fact equivalent to sampling a random interaction matrix $\boldsymbol  {A}$ and an intrinsic growth rate vector $\boldsymbol  {r}$ inside the feasibility domain and checking the stability of the corresponding feasible fixed point. The exponential decay with increasing $S$ strongly suggests that the set of feasible unstable fixed points has measure zero for large, randomly interacting Lotka-Volterra systems. }}{12}{}}
\newlabel{fig:weightedprobabilitiess}{{6}{12}{}{}{}}
\citation{May1972}
\citation{Roberts1974,Pimm1979,King1983,ReviewRMT,amnatjames,Jacquet2016}
\citation{May1972,Allesina2012}
\bibdata{Gibbs_AbdRndMatNotes,abdrndmat}
\bibcite{May1988}{{1}{}{{}}{{}}}
\bibcite{Arditi2012}{{2}{}{{}}{{}}}
\bibcite{May1972}{{3}{}{{}}{{}}}
\bibcite{Allesina2012}{{4}{}{{}}{{}}}
\bibcite{ReviewRMT}{{5}{}{{}}{{}}}
\bibcite{Allesina2015a}{{6}{}{{}}{{}}}
\bibcite{Grilli2016}{{7}{}{{}}{{}}}
\bibcite{Bell2001a}{{8}{}{{}}{{}}}
\bibcite{Fisher1943a}{{9}{}{{}}{{}}}
\bibcite{Preston1948}{{10}{}{{}}{{}}}
\bibcite{Volkov2007}{{11}{}{{}}{{}}}
\bibcite{Caswell1976}{{12}{}{{}}{{}}}
\bibcite{Hubbell2001a}{{13}{}{{}}{{}}}
\bibcite{Volkov2003}{{14}{}{{}}{{}}}
\bibcite{Azaele2016}{{15}{}{{}}{{}}}
\bibcite{MacArthur1957a}{{16}{}{{}}{{}}}
\@writefile{toc}{\contentsline {section}{\numberline {}Acknowledgments}{13}{}}
\@writefile{toc}{\contentsline {section}{\numberline {}References}{13}{}}
\bibcite{Vandermeer1966}{{17}{}{{}}{{}}}
\bibcite{amnatjames}{{18}{}{{}}{{}}}
\bibcite{Jacquet2016}{{19}{}{{}}{{}}}
\bibcite{Roberts1974}{{20}{}{{}}{{}}}
\bibcite{Rohr2014}{{21}{}{{}}{{}}}
\bibcite{Stone2016}{{22}{}{{}}{{}}}
\bibcite{Grilli2017}{{23}{}{{}}{{}}}
\bibcite{nguyen2012elliptic}{{24}{}{{}}{{}}}
\bibcite{ORourke2014}{{25}{}{{}}{{}}}
\bibcite{Rogers2008}{{26}{}{{}}{{}}}
\bibcite{Rogers2009}{{27}{}{{}}{{}}}
\bibcite{Kaszkurewicz2000}{{28}{}{{}}{{}}}
\bibcite{Redheffer1985}{{29}{}{{}}{{}}}
\bibcite{Wigner1958}{{30}{}{{}}{{}}}
\bibcite{Tang2014}{{31}{}{{}}{{}}}
\bibcite{Smale1976}{{32}{}{{}}{{}}}
\bibcite{Takeuchi1996}{{33}{}{{}}{{}}}
\bibcite{Hofbauer1998}{{34}{}{{}}{{}}}
\bibcite{Pimm1979}{{35}{}{{}}{{}}}
\bibcite{King1983}{{36}{}{{}}{{}}}
\bibcite{Rogers2010}{{37}{}{{}}{{}}}
\newlabel{LastBibItem}{{37}{14}{}{}{}}
\citation{Rogers2010}
\citation{Rogers2010}
\@writefile{toc}{\appendix }
\@writefile{toc}{\contentsline {section}{\numberline {A}Notation and goals}{15}{}}
\newlabel{eq:resolvent_finite}{{A3}{15}{}{}{}}
\newlabel{resolvent+spectrum}{{A4}{15}{}{}{}}
\newlabel{spectrum+resolvent}{{A5}{15}{}{}{}}
\@writefile{toc}{\contentsline {section}{\numberline {B}Quaternions}{15}{}}
\newlabel{sec:quaternions}{{B}{15}{}{}{}}
\@writefile{toc}{\contentsline {section}{\numberline {C}Bulk and outliers of the spectrum of $\boldsymbol  {M}$}{16}{}}
\newlabel{sec:mudiff}{{C}{16}{}{}{}}
\newlabel{eq:matrix_decomposed}{{C1}{16}{}{}{}}
\@writefile{lof}{\contentsline {figure}{\numberline {A1}{\ignorespaces The eigenvalue distributions for $\boldsymbol  {M} $ and $ \boldsymbol  {J} $ of size $ S = 250 $ with $\boldsymbol  {D} $ and $\boldsymbol  {X}$ following different distributions. In each case, $\boldsymbol  {A} $ is a bivariate normal distribution with identical marginals $ \mu = 2 / S$, $\sigma = 0.5$ and $ \rho = 0$. Uniform D has $\boldsymbol  {D} $ following a uniform distribution on $(-1.5, -0.5)$. LogNormal X has $\boldsymbol  {X}$ following a log-normal distribution with log-mean $0$ and log-standard deviation $0.35$. HalfNormal X has $ \boldsymbol  {X} $ following a half-normal distribution with support $(1, \infty )$ and parameter $\theta = 1$.}}{17}{}}
\newlabel{fig:M+J}{{A1}{17}{}{}{}}
\newlabel{inverse}{{C4}{17}{}{}{}}
\newlabel{eq:subleading}{{C5}{17}{}{}{}}
\@writefile{toc}{\contentsline {section}{\numberline {D}The case $\sigma = 0$}{17}{}}
\citation{Rogers2008,Rogers2009}
\@writefile{lof}{\contentsline {figure}{\numberline {A2}{\ignorespaces Histograms of the eigenvalue distribution for two matrices $\boldsymbol  {Q}$ of size $ S = 1500$. In each matrix, $\sigma _d = 0$, $\mu _d = -1$ and $ \mu = 5 / S$. The Uniform plot has $\boldsymbol  {X}$ following a uniform distribution on $(0,1)$ and the LogNormal plot has $\boldsymbol  {X}$ following a log-normal distribution with log-mean and log-standard deviation both $0.5$.}}{18}{}}
\newlabel{fig:observationSI}{{A2}{18}{}{}{}}
\newlabel{resolventQ}{{D1}{18}{}{}{}}
\newlabel{spectrumQ}{{D2}{18}{}{}{}}
\newlabel{predictedQ}{{D4}{18}{}{}{}}
\citation{Rogers2008,Rogers2009}
\citation{Rogers2008,Rogers2009,Grilli2016}
\citation{Rogers2009,Grilli2016}
\@writefile{toc}{\contentsline {section}{\numberline {E}Derivation of the spectral density using the cavity method}{19}{}}
\citation{Rogers2010}
\newlabel{eq:tbstar}{{E17}{20}{}{}{}}
\bibstyle{nature}
\providecommand\NAT@force@numbers{}\NAT@force@numbers
\newlabel{support:2}{{E18}{21}{}{}{}}
\newlabel{support:3}{{E19}{21}{}{}{}}
\newlabel{eq:support}{{E20}{21}{}{}{}}
\@writefile{toc}{\contentsline {section}{\numberline {}Support of the spectral density in the case $\rho = 0$}{21}{}}
\@writefile{lof}{\contentsline {figure}{\numberline {A3}{\ignorespaces The conditional probability of a matrix $\boldsymbol  {M}$ becoming \textit  {stable} given an \textit  {unstable} interaction matrix $\boldsymbol  {A}$ with leading eigenvalue $-d$. The off-diagonal elements of $\boldsymbol  {A}$ follow a bivariate normal distribution and, for each $S$, $\mu $ =0, $\sigma = 1 / \sqrt  {S}$ and $\rho = -0.5$, $0$ or $0.5$. The elements of $\boldsymbol  {X}$ are drawn from a uniform distribution on $(0,1)$, so that $\mu _X = 0.5$ and $\sigma _X^2 = \frac  {1}{12}$. The diagonal elements of $\boldsymbol  {A}$ are fixed at $-1$ since $\sigma _d^2 = 0$ and $\mu _D = -1$. Each probability is calculated from $1000$ trials from $1000$ simulated matrices $\boldsymbol  {M} = \boldsymbol  {XA}$.}}{22}{}}
\newlabel{fig:destabilized1}{{A3}{22}{}{}{}}
\@writefile{lof}{\contentsline {figure}{\numberline {A4}{\ignorespaces As in Figure A3{}{}{}\hbox {}, except now the conditional probability is weighted by feasibility.}}{22}{}}
\newlabel{fig:destabilized2}{{A4}{22}{}{}{}}
\@writefile{lof}{\contentsline {figure}{\numberline {A5}{\ignorespaces The conditional probability of a matrix $\boldsymbol  {M}$ becoming unstable given a stable interaction matrix $\boldsymbol  {A}$ with leading eigenvalue $-d$. The off-diagonal elements of $\boldsymbol  {A}$ follow a bivariate normal distribution and, for each $S$, $\mu $ =0, $\sigma = 1 / \sqrt  {S}$ and $\rho = -0.5$, $0$ or $0.5$. The elements of $\boldsymbol  {X}$ are drawn from a uniform distribution on $(0,1)$, so that $\mu _X = 0.5$ and $\sigma _X^2 = \frac  {1}{12}$. The diagonal elements of $\boldsymbol  {A}$ follow a uniform distribution on $(-0.75, -1.25)$ so that $\sigma _d^2 = \frac  {1}{48}$ and $\mu _D = -1$. Each probability is calculated from $1000$ trials from $1000$ simulated matrices $\boldsymbol  {M} = \boldsymbol  {XA}$.}}{23}{}}
\newlabel{fig:Dvarying1}{{A5}{23}{}{}{}}
\@writefile{lof}{\contentsline {figure}{\numberline {A6}{\ignorespaces As in Figure A5{}{}{}\hbox {}, except now the conditional probability is weighted by feasibility.}}{23}{}}
\newlabel{fig:Dvarying2}{{A6}{23}{}{}{}}
\newlabel{LastPage}{{}{23}{}{}{}}
