\relax 
\newlabel{FirstPage}{{}{1}{}{}{}}
\@writefile{toc}{\contentsline {title}{The effect of population abundances on the stability of large random ecosystems\\Supplementary Information}{1}{}}
\citation{Rogers2010}
\citation{Rogers2010}
\@writefile{toc}{\contentsline {section}{\numberline {I}Notation and goals}{2}{}}
\newlabel{eq:resolvent_finite}{{3}{2}{}{}{}}
\newlabel{resolvent+spectrum}{{4}{2}{}{}{}}
\newlabel{spectrum+resolvent}{{5}{2}{}{}{}}
\@writefile{toc}{\contentsline {section}{\numberline {II}Quaternions}{2}{}}
\newlabel{sec:quaternions}{{II}{2}{}{}{}}
\@writefile{toc}{\contentsline {section}{\numberline {III}Bulk and outliers of the spectrum of $\boldsymbol  {M}$}{3}{}}
\newlabel{sec:mudiff}{{III}{3}{}{}{}}
\newlabel{eq:matrix_decomposed}{{16}{3}{}{}{}}
\@writefile{lof}{\contentsline {figure}{\numberline {1}{\ignorespaces The eigenvalue distributions for $\boldsymbol  {M} $ and $ \boldsymbol  {J} $ of size $ S = 250 $ with $\boldsymbol  {D} $ and $\boldsymbol  {X}$ following different distributions. In each case, $\boldsymbol  {A} $ is a bivariate normal distribution with identical marginals $ \mu = 2 / S$, $\sigma = 0.5$ and $ \rho = 0$. Uniform D has $\boldsymbol  {D} $ following a uniform distribution on $(-1.5, -0.5)$. LogNormal X has $\boldsymbol  {X}$ following a log-normal distribution with log-mean $0$ and log-standard deviation $0.35$. HalfNormal X has $ \boldsymbol  {X} $ following a half-normal distribution with support $(1, \infty )$ and parameter $\theta = 1$.}}{4}{}}
\newlabel{fig:M+J}{{1}{4}{}{}{}}
\newlabel{inverse}{{19}{4}{}{}{}}
\newlabel{eq:subleading}{{20}{4}{}{}{}}
\@writefile{toc}{\contentsline {section}{\numberline {}The case $\sigma = 0$}{4}{}}
\citation{XXX}
\@writefile{lof}{\contentsline {figure}{\numberline {2}{\ignorespaces Histograms of the eigenvalue distribution for two matrices $\boldsymbol  {Q}$ of size $ S = 1500$. In each matrix, $\sigma _d = 0$, $\mu _d = -1$ and $ \mu = 5 / S$. The Uniform plot has $\boldsymbol  {X}$ following a uniform distribution on $(0,1)$ and the LogNormal plot has $\boldsymbol  {X}$ following a log-normal distribution with log-mean and log-standard deviation both $0.5$.}}{5}{}}
\newlabel{fig:observation}{{2}{5}{}{}{}}
\newlabel{resolventQ}{{21}{5}{}{}{}}
\newlabel{spectrumQ}{{22}{5}{}{}{}}
\newlabel{predictedQ}{{24}{5}{}{}{}}
\citation{Rogers2008,Rogers2009}
\citation{Rogers2008,Rogers2009,Grilli2016}
\citation{Rogers2009,Grilli2016}
\@writefile{toc}{\contentsline {section}{\numberline {IV}Derivation of the spectral density using the cavity method}{6}{}}
\citation{XXX}
\newlabel{eq:tbstar}{{41}{7}{}{}{}}
\bibdata{Gibbs_SINotes,abdrndmat}
\bibstyle{nature}
\newlabel{support:2}{{42}{8}{}{}{}}
\newlabel{eq:support}{{43}{8}{}{}{}}
\@writefile{toc}{\contentsline {section}{\numberline {}Support of the spectral density in the case $\rho = 0$}{8}{}}
\@writefile{lof}{\contentsline {figure}{\numberline {3}{\ignorespaces The conditional probability of a matrix $\boldsymbol  {M}$ becoming \textit  {stable} given an \textit  {unstable} interaction matrix $\boldsymbol  {A}$ with leading eigenvalue $-d$. The off-diagonal elements of $\boldsymbol  {A}$ follow a bivariate normal distribution and, for each $S$, $\mu $ =0, $\sigma = 1 / \sqrt  {S}$ and $\rho = -0.5$, $0$ or $0.5$. The elements of $\boldsymbol  {X}$ are drawn from a uniform distribution on $(0,1)$, so that $\mu _X = 0.5$ and $\sigma _X^2 = \frac  {1}{12}$. The diagonal elements of $\boldsymbol  {A}$ are fixed at $-1$ since $\sigma _d^2 = 0$ and $\mu _D = -1$. Each probability is calculated from $1000$ trials from $1000$ simulated matrices $\boldsymbol  {M} = \boldsymbol  {XA}$.}}{9}{}}
\newlabel{fig:destabilized1}{{3}{9}{}{}{}}
\@writefile{lof}{\contentsline {figure}{\numberline {4}{\ignorespaces As in Figure 3{}{}{}\hbox {}, except now the conditional probability is weighted by feasibility.}}{9}{}}
\newlabel{fig:destabilized2}{{4}{9}{}{}{}}
\@writefile{lof}{\contentsline {figure}{\numberline {5}{\ignorespaces The conditional probability of a matrix $\boldsymbol  {M}$ becoming unstable given a stable interaction matrix $\boldsymbol  {A}$ with leading eigenvalue $-d$. The off-diagonal elements of $\boldsymbol  {A}$ follow a bivariate normal distribution and, for each $S$, $\mu $ =0, $\sigma = 1 / \sqrt  {S}$ and $\rho = -0.5$, $0$ or $0.5$. The elements of $\boldsymbol  {X}$ are drawn from a uniform distribution on $(0,1)$, so that $\mu _X = 0.5$ and $\sigma _X^2 = \frac  {1}{12}$. The diagonal elements of $\boldsymbol  {A}$ follow a uniform distribution on $(-0.75, -1.25)$ so that $\sigma _d^2 = \frac  {1}{48}$ and $\mu _D = -1$. Each probability is calculated from $1000$ trials from $1000$ simulated matrices $\boldsymbol  {M} = \boldsymbol  {XA}$.}}{10}{}}
\newlabel{fig:Dvarying1}{{5}{10}{}{}{}}
\@writefile{lof}{\contentsline {figure}{\numberline {6}{\ignorespaces As in Figure 5{}{}{}\hbox {}, except now the conditional probability is weighted by feasibility.}}{10}{}}
\newlabel{fig:Dvarying2}{{6}{10}{}{}{}}
\newlabel{LastPage}{{}{10}{}{}{}}
