\relax 
\@writefile{toc}{\contentsline {section}{\numberline {1}Introduction}{1}}
\@writefile{toc}{\contentsline {section}{\numberline {2}Simulating Matrices}{1}}
\@writefile{toc}{\contentsline {section}{\numberline {3}Analytical Predictions}{2}}
\@writefile{lof}{\contentsline {figure}{\numberline {1}{\ignorespaces The top row shows three matrices $\bf  {X}$, $\bf  {A}$ and $\bf  {M} = \bf  {X} \times \bf  {A }$ of size $S = 25$. $\bf  {X}$ is sampled from a uniform distribution on $(0,1)$. $\bf  {A }$ is sampled from a bivariate normal distribution with identical marginals $\mu = 0$, $\sigma = 1 / \sqrt  {S}$ and correlation $ \rho = -0.5$. The diagonal elements of $\bf  {A }$ are fixed at -1. Green stands for positive coefficients and red stands for negative. The bottom row shows the eigenvalue distribution of $\bf  {A} $ and $\bf  {M}$ with size $S = 500$.}}{3}}
\newlabel{fig:populationaffect}{{1}{3}}
\@writefile{lof}{\contentsline {figure}{\numberline {2}{\ignorespaces The top row shows three matrices $\bf  {M}$, $\bf  {B}$ and $\bf  {J}$ of size $S = 100$. $\bf  {M} = \bf  {X} \times ( \bf  {A}+ \bf  {D} )$, where $\bf  {X}$ is sampled from a uniform distribution on $(0,1)$ and $\bf  {A}$ is sampled from a bivariate normal distribution with identical marginals $\mu = 5 / S$, $\sigma = 1 / \sqrt  {S}$ and correlation $ \rho = -0.5$. The diagonal elements of $\bf  {A}$ are all zero. $\bf  {D}$ is a diagonal matrix with entries all fixed at -1. If $\bf  {N}$ is a matrix of size $S = 100$ all of whose entries are fixed at the mean of $\bf  {A}$, then $\bf  {B} = \bf  {X} \times ( \bf  {N} + \bf  {D} )$ and $\bf  {J} = \bf  {X} \times ( \bf  {A} - \bf  {N} + \bf  {D} )$. $\bf  {B}$ is meant to capture the leading eigenvalue from the mean of $\bf  {A}$, while $\bf  {J}$ represents the bulk of the spectrum of $\bf  {M}$. The second row shows the eigenvalue distributions of $\bf  {M}$, $\bf  {B}$ and $\bf  {J}$. We can predict the outlying eigenvalue of the matrix $\bf  {M}$ by finding the leading eigenvalue of $\bf  {B}$. In fact, we can predict the outlying eigenvalue of $\bf  {B}$ analytically by the formula $ \lambda = \mu _X (S \mu - 1)$. The last row plots the observed outlying eigenvalue of $\bf  {M}$ against our analytical prediction with $ \rho = -0.5, 0 $ and $0.5$ and $\bf  {X}$ following a uniform, log-normal or half-normal distribution. The prediction fails when the outlying eigenvalue is close to zero since it's then determined by the maximum radius of the bulk.}}{4}}
\newlabel{fig:observation}{{2}{4}}
\newlabel{eq:1}{{3}{5}}
\@writefile{toc}{\contentsline {section}{\numberline {4}Stability}{5}}
\@writefile{lof}{\contentsline {figure}{\numberline {3}{\ignorespaces The top row shows the eigenvalue distributions of three matrices $\bf  {M} = \bf  {X} \times \bf  {A}$ and the analytical predictions for the support of the eigenvalue distribution as a solid blue line. In each of the three plots, $\bf  {A}$ is sampled from a bivariate normal distribution with identical marginals $\mu = 0$, $\sigma = 1 / \sqrt  {S}$ and correlation $ \rho = 0$. The diagonal entries of $\bf  {A}$ are fixed at $-2$. In the Uniform plot, $\bf  {X}$ is sampled from a uniform distribution on (0.25, 1.75). In the Log Normal plot, $\bf  {X}$ is sampled from a log-normal distribution with log-mean 0.1 and log-standard deviation 0.5. In the Half Normal plot, $\bf  {X}$ is sampled from a half-normal distribution shifted rightwards so that it's non-zero on (1, $\infty $) and with parameter $ \theta = 1$. The bottom row plots the leading eigenvalue of $\bf  {M}$ against the analytical prediction for the leading eigenvalue of matrices with the same distributions plotted above. The different color points correspond to different standard deviations in sampling $\bf  {A}$ and we obtain a spread of points by varying the standard deviation of $\bf  {X}$. Every point is an average of twenty eigenvalues obtained from constructing $\bf  {M}$ with identical parameters.}}{6}}
\newlabel{fig:uncorrelatedpredictions}{{3}{6}}
\@writefile{lof}{\contentsline {figure}{\numberline {4}{\ignorespaces For a fixed number of species $S$, we construct 1000 matrices $\bf  {A}$ with identical marginals $\mu = 0$, $\sigma = 1 / \sqrt  {S}$ and $\rho = -0.5, 0$ or $0.5$. We force the rightmost eigenvalue of $\bf  {A}$ to be $d = 0.025, 0.05$ or $0.1$ by adding a diagonal matrix to $\bf  {A}$ so that it's always stable. Then, we find the rightmost eigenvalue of $\bf  {M} = \bf  {X} \times \bf  {A}$ with $\bf  {X}$ sampled from a uniform distribution on (0,1) to calculate the probability that $\bf  {M}$ is unstable given that $\bf  {A}$ is stable. The probability tends to zero as the number of species increases.}}{7}}
\newlabel{fig:unweightedprobabilities}{{4}{7}}
\bibdata{abdundancepaper}
\bibstyle{plain}
\@writefile{toc}{\contentsline {section}{\numberline {5}Discussion}{8}}
\@writefile{toc}{\contentsline {section}{\numberline {6}Conclusion}{8}}
\@writefile{lof}{\contentsline {figure}{\numberline {5}{\ignorespaces As in Figure 4\hbox {}, but with each matrix weighted by the feasibility of its growth rates $r_i$. The y-axis now follows a log scale. The probability tends toward zero even faster than in the unweighted case.}}{9}}
\newlabel{fig:weightedprobabilitiess}{{5}{9}}
